28

71 60
18
2 41
30 11
62 46
4 16
14 55
30 18
67 1
31 41
8 39
63 19
57 24
15 12
45 38
13 27
53 8
26 11
39 11
34 46
61 54

14 75
11
12 8
10 69
9 23
1 30
10 62
6 28
1 71
5 23
1 53
11 72
1 34
293 96

9 71
20
6 67
8 5
5 29
7 27
6 60
8 56
8 29
0 53
1 66
1 24
3 48
8 54
5 16
3 27
5 36
8 56
7 62
1 8
2 21
0 54
134 60

2 57
13
0 6
0 4
0 11
1 5
0 25
0 33
1 45
0 45
1 7
1 7
1 26
1 12
0 20
308 130

29 72
19
18 23
17 26
2 51
4 5
22 63
21 3
18 7
15 45
0 5
14 62
21 44
20 53
18 63
26 19
16 58
27 16
26 13
19 63
26 0
530 93

72 74
18
14 52
48 7
26 55
22 16
2 17
9 68
24 45
53 60
26 28
9 16
71 15
71 62
22 14
29 10
42 53
36 41
28 15
59 70
430 149

47 73
20
5 37
0 41
46 54
42 55
11 37
36 47
18 45
34 49
28 37
11 30
13 53
7 25
4 31
9 18
39 33
3 50
23 50
26 53
33 33
39 52
557 93

51 50
13
36 31
13 40
42 6
0 16
32 15
41 11
36 2
45 29
26 15
17 49
38 3
22 37
10 35
21 175

29 58
16
2 42
21 19
27 46
22 6
25 5
6 21
12 31
11 20
15 23
20 28
24 35
8 8
20 4
14 23
2 26
5 8
373 156

30 57
15
22 19
26 41
17 14
28 22
24 23
24 1
4 3
12 32
26 53
26 55
28 54
20 34
26 29
20 14
29 45
99 69

5 32
15
4 10
3 2
0 29
3 25
0 23
4 27
4 14
4 9
1 18
1 16
1 8
3 4
4 1
3 24
0 17
472 178

14 71
16
7 1
8 41
13 33
11 54
1 66
13 70
7 13
8 50
2 7
2 47
1 62
8 50
0 38
8 32
4 48
7 8
288 179

69 35
11
19 20
32 13
7 12
13 1
37 28
22 4
14 13
25 27
66 22
18 29
10 1
136 16

57 63
14
54 2
48 26
10 61
25 58
21 9
24 20
6 61
37 38
11 25
1 39
39 34
47 61
56 9
32 25
33 136

48 70
20
36 35
9 52
4 14
45 5
8 25
40 8
6 2
24 2
28 38
8 1
36 0
33 22
18 34
18 15
38 28
30 17
40 28
32 23
47 15
19 67
560 77

29 65
20
2 50
8 4
3 40
20 49
19 4
13 44
9 40
24 20
3 33
26 54
27 46
1 17
0 11
17 37
25 3
14 56
5 51
2 51
17 23
2 57
159 174

47 51
13
34 16
22 44
23 39
14 45
23 29
8 19
19 12
11 43
44 38
13 25
4 2
20 22
32 50
88 180

45 72
17
36 6
15 43
5 12
25 36
25 34
13 51
36 40
9 16
25 22
7 6
5 54
27 68
11 5
32 71
8 49
7 38
24 29
515 117

3 8
16
0 4
0 2
1 1
2 2
1 4
0 7
0 5
0 0
2 7
0 0
0 2
1 3
2 5
0 4
2 0
0 5
541 8

48 57
19
21 56
10 56
33 38
5 31
32 38
32 40
38 3
9 1
25 41
28 18
0 0
35 45
1 52
5 36
37 53
6 25
30 44
19 42
16 10
358 130

20 26
14
2 13
12 19
11 25
16 17
9 3
17 22
13 19
8 4
2 19
18 19
13 16
2 9
12 22
4 5
50 170

50 70
19
38 55
45 32
21 61
30 53
44 54
26 35
30 31
32 63
19 69
26 7
27 66
24 34
26 22
8 62
4 22
45 6
20 20
47 45
2 52
569 128

68 21
15
0 17
47 19
40 13
31 14
64 9
54 1
21 14
56 5
47 2
54 8
10 18
13 18
58 18
40 15
56 0
338 74

60 19
17
16 7
1 18
47 8
2 14
7 9
29 16
57 2
39 3
32 16
19 14
31 17
58 7
25 10
40 15
46 2
37 4
0 18
572 61

58 75
19
42 5
57 43
31 45
48 39
52 28
1 35
40 51
19 23
18 30
35 2
38 58
1 4
52 6
9 55
8 52
48 56
22 33
22 49
52 15
261 130

53 57
18
26 32
13 9
9 40
17 9
5 14
10 2
27 35
42 5
44 20
29 19
43 54
8 48
44 25
35 23
27 2
41 56
31 36
29 6
36 125

29 65
10
16 35
7 28
15 61
2 33
26 57
28 17
19 34
8 64
16 12
12 40
226 68

48 17
18
10 12
26 3
29 15
43 13
27 11
20 10
9 0
30 2
40 16
8 8
45 1
47 11
32 16
14 8
42 11
29 0
42 13
23 16
97 169
