*** Life<Cell> 14x17 ***

Generation = 0, Population = 18.
---0-----00------
-----------------
-----0-----------
------------0----
-----------------
-----------------
-----------------
---0-------------
-----0------0----
---0------------0
------------0----
--0-----0--0-----
----0----0--0--0-
-----------------

Generation = 4, Population = 56.
------1*1*.1-10--
---------00------
-0-0------0------
---0----0-------0
---1-0---01-1----
---0------------0
-----*------*----
--0--.-10--00----
-0--1---0---0--10
-----.-0----0-0--
--------0-------1
0--.1-*0--.-0--0-
1-.-1----0-*-..-1
--*1----0--*----0

Generation = 8, Population = 107.
-0000****.*-0**10
---*--101***1---*
-*-----*1-.-1----
-.0-0.-000*00-0--
----0-----*0---1-
---*100*-10-*----
-----.-1-*--.--0-
--0.0.0.01--*1-1*
-1-1-011.-1-*1-.*
--.-1*-0.-*..1-0-
.--*-01-0-0---1*.
*0-..1.*1.*0-.-0-
.-.0*01.-***1..-*
--..0-0-*-0.00**-

Generation = 12, Population = 90.
.*1.1.......-**1*
---.0--0..*..0-1*
-.010--**...1*-11
0.0-**-1-0.*10---
0-*--01--*.-*--.0
1-..*--.-*-1..-*-
-*-.-.0.-.--.--.*
--0.-.-...-*..1-.
-***--.-.0.1.*-.*
*-.0..*..-*..*0-0
..1*1*.-.---.1***
.....-*.-..-**-1-
...***-.-.*.-.*-.
--.*1-*.*1**1-**-

Generation = 16, Population = 85.
..**........**.*.
1*-*-....**.*0.*.
-.-11-......-*--1
*.*.*..*.*.*1-*1-
--.*.0.**..-.1-.-
.*...-*.**1***0..
0.-.-.**..0**-0..
0**.-.1*.*1...1**
0....*.1.0....***
**.-.....-....-11
...**.*0...-...*.
.*..*-..-..1..-.-
..*...1.....-**-.
--..1**..-...-**.

Generation = 20, Population = 86.
.**.......****.*.
*.**-.......**.**
-.11.1..*.**..0*-
*.*.....*.*..-.*-
.-**.0.....1....0
*....-.......*0..
*.-.-....****-1..
*...*.1**.**.*.*.
-*...***..**.....
...-*..****...0*1
.......1*.*1*..*.
.....**.*.*...*.*
.....***...*..**.
--...**..-..*-*..

Generation = 24, Population = 72.
..**.......*...**
..**1....**.*...*
-..1.-........-*-
...*.....**..-.*1
.0*.*0....*1....-
.*...1..*..*..-.*
**0.-**..*.*.1...
......***..**.***
-*......*...*...*
...0.**....*.*.**
......**...-..***
.....***..*..*...
.....*.....*.....
--...*...-..**...

Generation = 28, Population = 87.
...*.......*...*.
...*......*.***.*
-.*1*1......*****
.**......*..*-...
**...0...*.-*.*.-
*...*-....*.**0.*
*.*.*......**1.**
*....*.**..*...**
*...**.**.*...***
.**1**.....*...**
...***....***..**
...............**
......*....*****.
--...*...-.***...

Generation = 32, Population = 58.
.................
....**.......***.
-*..***......***.
**...........0*.*
*.*..-........**1
*....-**......0**
*.*.****.....1...
*..*....*...**...
*.***..*.........
**.....*..*......
..*.......*......
....**...*...*...
....*......**....
--.......-.......

Generation = 36, Population = 46.
.............***.
.............*.*.
1...***..........
**..*.*......-...
**..*0.*.....**..
........*.....0..
..**....**.......
.**......*.......
*...*****........
.*...*...........
.*...*...*.*.....
...**.....**.....
..........*......
--.......-.......

*** Life<Cell> 20x2 ***

Generation = 0, Population = 13.
0-
--
-0
0-
0-
00
--
0-
00
--
--
--
-0
--
--
--
0-
00
--
--

Generation = 1, Population = 18.
-0
00
--
1-
--
-1
-0
1-
-1
00
--
-0
0-
-0
--
0-
1-
-1
00
--

Generation = 2, Population = 25.
-1
1-
-0
-0
00
0*
-1
-0
0*
1-
0-
--
-0
--
00
10
*-
0*
1-
00

Generation = 3, Population = 16.
--
-0
-1
--
-1
-.
--
--
-*
--
10
00
0-
0-
--
*-
.0
1*
-0
-1

Generation = 4, Population = 17.
-1
11
0*
--
0-
-.
--
-0
0.
1-
--
1-
--
10
--
.-
.1
**
--
0*

Generation = 5, Population = 23.
-*
-*
-*
-0
-1
0.
-1
--
1*
*0
--
-0
-0
*1
00
.0
**
**
--
1.

Generation = 6, Population = 19.
0.
1*
0*
1-
-*
-*
--
1-
-*
*-
1-
11
--
.*
-1
.-
..
**
-0
-.

Generation = 7, Population = 21.
1*
*.
1.
*0
-*
0.
01
--
1*
*-
--
-*
0-
..
0*
.0
..
**
-1
-.

Generation = 8, Population = 22.
-*
*.
-.
*-
0*
1.
-*
--
-*
*-
10
-.
--
**
1*
*1
**
**
-*
-.

Generation = 9, Population = 15.
-.
..
-.
*-
1*
*.
-.
--
-.
*0
-1
1.
00
**
*.
.*
..
..
-*
-.

Generation = 10, Population = 15.
-.
..
1.
*-
**
**
0.
--
1.
*-
1*
*.
1-
..
*.
..
..
..
1.
-.

Generation = 11, Population = 12.
-.
..
*.
*-
..
..
1*
--
*.
*-
**
*.
*0
..
..
..
..
..
-.
1.

Generation = 12, Population = 9.
-.
..
..
.0
..
..
*.
-0
..
*-
**
..
*1
..
..
..
..
..
1.
-.

Generation = 13, Population = 5.
-.
..
..
.-
..
..
..
--
..
*-
**
..
.*
..
..
..
..
..
-.
1.

Generation = 14, Population = 6.
-.
..
..
.-
..
..
..
--
..
*-
**
**
..
..
..
..
..
..
1.
-.

Generation = 15, Population = 4.
-.
..
..
.-
..
..
..
--
..
*-
..
**
..
..
..
..
..
..
-.
1.

Generation = 16, Population = 4.
-.
..
..
.-
..
..
..
--
..
.0
**
..
..
..
..
..
..
..
1.
-.

Generation = 17, Population = 5.
-.
..
..
.-
..
..
..
--
..
*1
**
..
..
..
..
..
..
..
-.
1.

Generation = 18, Population = 4.
-.
..
..
.-
..
..
..
--
..
*-
**
..
..
..
..
..
..
..
1.
-.

*** Life<Cell> 4x19 ***

Generation = 0, Population = 15.
0---00-----------0-
-00--------0-------
0----0-0-------0---
-----0-0------0--0-

*** Life<Cell> 16x16 ***

Generation = 0, Population = 18.
--------------0-
0---0-0-------0-
---------0------
---0------------
----0-----------
----------------
-----------0----
0-------0-------
----------------
0---------------
------------0---
----------------
----------------
---0----0--0----
-----------0----
--------0-------

Generation = 4, Population = 46.
----1----01---.-
---*--0-0-------
-----0-----0-1.-
*------00-------
0-------0-----1-
----0-1-------0-
-------0-0--1--0
--01--------1---
----0-----------
--010---0--1----
--------0-------
0---------------
----------------
1---1---*..-0--0
-------0---*1--0
---01---0--.1---

Generation = 8, Population = 84.
1----*.-0**1***0
*-1*0*-*1-.---.-
100..1----.*1-.-
*.*-*.---.-10---
*-----.--1--01*1
*1-.0-1-0--00---
0-10*-----.-.---
0-*.-*0-----*---
--*-----.---*-1-
1--.*.--------1-
----.------00---
---------1--0---
----1--*-0--.0-1
1--..-11*..-.*..
----1--0-1-**-*.
*--**11000...---

Generation = 12, Population = 109.
..-1*..--*.-...-
.1-*-.*.*0*-1*.-
.0..**1..*....*0
........*..-.0*0
.0.0--.--.*.--.*
.*0..*--*-1*-**1
-**0*--01*.*.1-0
--.*-...10*-..11
1-..1.--.0**.-.-
11**..*0------.-
01*-*11--0.*----
---0-0--.*...--1
0-*-.10.*--*.1-.
110.*1.1.*..***.
----*.*-0***.1**
.1-**1-**-*..-01

Generation = 16, Population = 87.
..-..*..1.*....-
.*-....**-*1...1
.-****-...*...*1
..**....*..-.*.1
.-*--1.-....1-..
..-*...-.*1.0**.
1*...-**-...*.0-
*-...*.*--...**1
..*.1.-**-..*-*-
..*....**1.-1-.-
-..0*.1-*..**01-
0*----.-......**
*1.*..*....*.*0.
-*-..*......*...
0110...0-..**-..
.--..**..1**.---

Generation = 20, Population = 82.
..-**.......***.
.*1..*...-*....*
.*....-....**...
.*..**....*-....
...--1.-.****-..
..-.*.*1****-**.
*..**0.......*0-
.1.***...-...***
...*-....*...1.0
...****.*..---.-
*.....1-.....-10
0.-*--*-...**...
*.........*.*.-.
**0*......*.....
1.--...*0**..*..
.1**....**..*---

Generation = 24, Population = 58.
..-.........*.*.
*.*......1.*....
*.*...-....*....
.*...........**.
...1-*.-........
..-**.*1**...**.
.....-..***..**-
.-...**..***....
...*.***.*......
...........-.-.-
..*...*-......*.
-*-.1.........*.
*....*......*.1.
*.-*...**..*.*..
*.--..*.-.......
.......***...---

Generation = 28, Population = 50.
..-......***....
................
......-..***....
...*............
...**.*1........
..-....1..*.....
........**..*...
.-....*...**....
......*..***....
.....*.....-.-.-
......**......*.
-..*1.**.....*.*
....**.*....*..*
.*.....**...***.
.*1-*.**-....*..
.............---

Generation = 32, Population = 48.
..-.............
................
....*.-.........
...*.**.........
...*...*........
..-.****........
.....*...*.*....
.-...*.....*....
....**..*..*....
....*..*..*-.-.-
...**...**....*.
-...*...*...**.*
....**.*...*...*
.....*..*..**...
...-..*.*..*...*
.......*.....*-1

Generation = 36, Population = 53.
..-.............
................
...**.-.........
.....*..........
..*...**........
..0.............
..*.............
.-*.....*...**..
..*....**.*...*.
..*...*.**.*...0
..*..*...*.....*
-.*..*...*.**..*
.....*..***...**
...**.***.**..*.
...-.*......*...
.....**.*..*..-.

Generation = 40, Population = 57.
..-.............
................
.....***........
....*.**........
.**..**.........
******..........
*...............
**.*..**....*.*.
..**...*....*..*
**.........*...-
.....**.........
-....*.*.***....
.....*....*.....
...*....*.*.***.
...-*.*.*.**...*
.........**.**-.

Generation = 44, Population = 56.
..-.............
.....*.*........
................
........*.......
.....*.*........
.****.*.........
***.**.......*..
*...**......*.*.
.**........*....
.....*.....*..*-
..*..*..........
-.**.**...*..*..
...*..*.*....**.
....*...***...*.
...-****....*.**
......****....-.

*** Life<Cell> 17x3 ***

Generation = 0, Population = 16.
000
---
---
-00
0--
---
0-0
---
---
0--
00-
---
--0
---
00-
-00
---

Generation = 4, Population = 27.
***
-..
-1.
--*
110
0-*
*0-
*01
1-0
.--
-*1
-11
---
1.-
*0-
-1.
0.0

Generation = 8, Population = 26.
...
-*.
-**
--.
1-1
-**
*-1
..*
***
.--
1.-
1.*
***
**-
.1-
-**
-*0

Generation = 12, Population = 12.
...
*..
1..
-1.
1-.
-..
.--
...
...
.1*
.*.
.*.
...
.*1
*--
*..
-.-

*** Life<Cell> 10x14 ***

Generation = 0, Population = 16.
-----------0-0
--0-0---------
----0---------
------------0-
----------0---
----00----0---
0-------------
0-------0-----
---0---00-----
--------------

Generation = 2, Population = 42.
----1----0---0
0-0-*-0-----0-
--1---0---00-0
--0--0--------
0---1---0---1-
1-01--10------
*-00---01-1---
*-0-000-------
10----1--10---
0-------1-----

Generation = 4, Population = 45.
----*--0-010-0
--*0.-*-0-1---
----*---0--*-0
1-----------1-
---0--100--1-1
-00-1-.-10----
*0*-----*-----
.1*-----------
.---1-*-0.*10-
*---00--1-1---

Generation = 6, Population = 60.
----.10--*.-0-
--.*.1.---.1--
---0.-*-*-1.1-
11111-1--0-1--
*-0---.-0-*--1
-00*1*.-*-*10-
.0.1---1*---00
*1.-*0---0----
*-1-.-.-*.*1*1
.1010*-1*-.-1-

Generation = 8, Population = 70.
--01*1*--..---
00..**.--1*--0
11-0*-*-.1-.-1
--***0.1-0-111
.0011-.--1*-1-
10-.1*.0.1*-01
.-.*-0-..-*-0*
.1.-*--1*00---
*1*0.-.-..*1**
.*-1-.-**1.0*-

Generation = 10, Population = 56.
---1..*1-..1-1
0-...*.---**--
1--0.-*0.-1.11
-*...-*10-1..-
*0**.1.0-*.*--
*0-.-..0.1*--1
*0**0--..-.--.
*..-.1-.*0----
.1.0.0*1..*...
**-*-*-....0.0

Generation = 12, Population = 68.
10-1.***1.**0-
*1**.**01-..01
*1--.0.0.*1.**
**.*.1.1*1*..*
.0*.*-.-*...--
.--.**.*.1*1*-
*-..--0..-*00.
*..-.*-*.-1---
.**-.-.*..*...
**1.0.0.**.-.-

Generation = 14, Population = 53.
-0***...1...--
.1.**..--1..-1
..1-*0.-..1..*
.**.*.*1..**.*
.0...-.1....**
*-*......***.-
**..---..0.*0*
.**0..1..----0
.**-*-....*...
..-*0.0***.-.-

Generation = 16, Population = 54.
--......-...-*
.******0-1****
...1***1.*...*
*...*..1...*.*
*-.*.1*.....*.
*1**..*.....*-
.***11-..-.*-.
..**..-*.*---*
..*1.*........
..1.0.*..*.-.-

*** Life<Cell> 2x11 ***

Generation = 0, Population = 13.
-0-0--00--0
0-000--0000

Generation = 2, Population = 9.
----0-*0-0-
01**------0

Generation = 4, Population = 11.
------**0--
*1**101-0--

Generation = 6, Population = 9.
1-1*1-.*-11
.-..---1--0

Generation = 8, Population = 12.
-0*..1**-*-
.-*.-0***0-

Generation = 10, Population = 9.
*-**.-..1*-
.-**-0...-*

Generation = 12, Population = 6.
.-..**....1
.*..-0...0.

Generation = 14, Population = 3.
.-..**....-
....-*...-.

Generation = 16, Population = 3.
.-..**....-
....-*...-.

Generation = 18, Population = 3.
.-..**....-
....-*...-.

Generation = 20, Population = 3.
.-..**....-
....-*...-.

Generation = 22, Population = 3.
.-..**....-
....-*...-.

Generation = 24, Population = 3.
.-..**....-
....-*...-.

Generation = 26, Population = 3.
.-..**....-
....-*...-.

Generation = 28, Population = 3.
.-..**....-
....-*...-.

Generation = 30, Population = 3.
.-..**....-
....-*...-.

Generation = 32, Population = 3.
.-..**....-
....-*...-.

Generation = 34, Population = 3.
.-..**....-
....-*...-.

Generation = 36, Population = 3.
.-..**....-
....-*...-.

Generation = 38, Population = 3.
.-..**....-
....-*...-.

*** Life<Cell> 7x19 ***

Generation = 0, Population = 15.
00-----------------
--0-------0--------
------0--------0---
----------0-0--0---
--0----0-----0-----
---0---00----------
-------------------

Generation = 5, Population = 53.
-*--1-----0-0-0.0--
*--1-0--*-1----.---
------0--0--0-0-0--
0-11-0-*1---1-.1---
0-0--0*-0*0-------0
--10-0*-***11--0-0-
-010001*--00----0--

*** Life<Cell> 7x12 ***

Generation = 0, Population = 17.
-0--0-------
---0-----0-0
------------
---0-------0
-0---------0
---0-000----
---0-00-0---

*** Life<Cell> 8x15 ***

Generation = 0, Population = 17.
---0------0----
-000-----0--00-
----0---0------
-0---------0---
--------0------
---------0--0--
---------------
---0---------0-

Generation = 3, Population = 49.
---**-00-010-00
---11----0-*-1-
0----0----00--0
01--0-0-0------
--0----0-010-00
0-------00*00*1
-----0----000-0
0-----0----1-10

Generation = 6, Population = 60.
-*0**0-1-11---.
*1*-1-0-*.0.1*1
.01--011*-1----
0.---00--0-010-
0000-10-1-.--01
1--0101--**-...
--110------10--
--10---000-.-*1

Generation = 9, Population = 51.
-*1..-1--.-*.-.
.**1.-.-..1.*.*
.----11-*-.-1-*
..-0*.1-*-0-*00
1---**-01**---.
**.1.-1**..0...
0-1*1---.--*---
0**---01-.**-**

Generation = 12, Population = 51.
*.1.***--.-**0.
..**.-.1..-***.
.-1-*.**.**---.
..--...-.0-*.11
.-0-**-11*.*-*.
.***.-.*...****
---..--0*-0.--*
0..-0-1*0**.-..

Generation = 15, Population = 43.
..*****-*.*..1.
..........-*...
.-.*.......0*-*
.*1*...-.1**.-.
.01*.*---.*.**.
*.*.*..*.......
****.-0-.--*1-.
-..*--*.-****..

Generation = 18, Population = 33.
...***.-.....-.
..*..*....-**..
*..*....*.*-.-.
*..*...-...**-.
.-**..1*-...**.
*......*..*...*
*.***---.-1.-*.
-...*-..1......

Generation = 21, Population = 36.
....**.-.....-.
..*..**...-*...
**..**.*.***.-.
.....****.**.-.
.0....*.*.*....
..........**...
..*..0-**.**...
-....1*.1*.....

Generation = 24, Population = 25.
...**..-.....-.
..*..*....-....
**..*........-.
**.**........1.
*1...*.........
.....*****.....
......-**.*....
-....-..-**....

Generation = 27, Population = 27.
.****..-.....-.
....**....-....
*..*.........1.
.*.**........-.
.1*.*..***.....
.......***.....
......1*..*....
-....-..***....

*** Life<Cell> 3x16 ***

Generation = 0, Population = 14.
0--0---00---00--
---0--0--00-----
0-0-0----------0

Generation = 5, Population = 26.
-11.-0-**-0-.***
-1---*11--.1*-*-
-0**10*1*0--1---

Generation = 10, Population = 11.
.-...-...*11....
----*....*...-*-
10**1-....--..--

*** Life<Cell> 9x9 ***

Generation = 0, Population = 16.
0-------0
0-0-0----
-000-----
---------
-----0---
------00-
00-------
-----0--0
0--------

Generation = 1, Population = 39.
100-0--0-
1010-0--0
-111-----
-000-0---
----0--0-
00----110
110--0000
-0--0-00-
-0---0--0

Generation = 2, Population = 26.
-1-0--0--
----0-0--
-*-*0---0
0-1-0-00-
0-0----1-
----0----
--10-1---
---0----0
010------

Generation = 3, Population = 41.
1----010-
---01-100
-*1.10---
10*01-1--
1-10---*0
0------1-
-1*-0-0-0
000100-0-
1-1-----0

Generation = 4, Population = 40.
-1-0-1*--
10-1---11
-.-.*1000
-1.1-0--0
-0-----*1
1--00--*0
1-.011---
-1--110-0
*1*-00---

Generation = 5, Population = 41.
-*-1-**-0
*--*--1--
0*-*.*-11
1**-11-0-
-11-000.*
*-0---1*-
*-*----0-
0*--*-1--
***-----0

Generation = 6, Population = 47.
-.-*-**--
*01*10*--
1.1*.*0-*
-..1-*110
1-*--1-.*
*0-00--.-
*1*01-010
1.01.---0
*.*00-00-

*** Life<Cell> 19x10 ***

Generation = 0, Population = 18.
-0--------
--00-00---
-------0--
---------0
----------
----------
-------0--
--00------
0--0------
----00----
-----0----
----------
--------0-
----------
----------
-----0----
----------
--0-------
----------

Generation = 1, Population = 47.
0--0-00---
--11-11---
--00-0--00
-------00-
---------0
-------0--
--00--0-0-
001-0--0--
-0-1-0----
0---1-0---
-----10---
-----0--0-
-------0-0
--------0-
-----0----
----0-0---
--0--0----
-0-0------
--0-------

Generation = 2, Population = 49.
-0-1---0--
00-*-*-000
-0---1---1
--00-001-0
----------
--00-----0
0--1-0---0
11--------
010----0--
------10--
0------00-
----01----
-----00---
-----0----
--------0-
--00---0--
----------
0---00----
----------

Generation = 3, Population = 84.
-1-*0001-0
11-.-.----
-1--0-----
--11---*-1
-----000--
001-00--01
1--*--0-01
*--0-0-0-0
-*11---10-
-00--0*1--
-0--01--10
0--01--00-
-----110--
----01--0-
--00-0---0
-0110-0---
0-0000-0--
-0-0110---
0---00----

Generation = 4, Population = 60.
-*-.---*--
**1*-.10-0
-*---1-0-1
--**-0-*--
00-0------
--*01-0---
---*-0-0-*
*-----01-1
-.*-0--*1-
01----.-00
-1-----0-1
--01-1----
0--00---0-
--0-1*----
-----1----
-1-------0
--------0-
0-0---1---
----------

Generation = 5, Population = 90.
-*-.---*00
*.-.0.*1-1
-.0-0*0--*
00.*-1-.01
11---000--
0-.-*0---1
1--*0--1-.
.1100-1*0*
-..--0-.-0
1---1-.1--
-*-0-10-1*
0-1-1-0000
-00--1-0-0
00-0-*0-0-
-00--*0--0
0-1--0----
000---00--
---0-1-00-
0-0---0---

Generation = 6, Population = 72.
-.0.0--*--
.*1*1..-0-
-.-0-.---*
--.*0-0.1-
*-00-1-1--
--.-.---0-
*--.1--*-*
.*-1-0**-*
0**10--.-1
-----0.---
0*0--*---*
--*1---111
0----*-1-1
11---.-0-0
0---0.-0--
1--10100-0
-----01---
-00-----10
--------0-

Generation = 7, Population = 91.
-*1.100.--
.**.-..---
-.--0*0-0*
0-..11-*--
.-1-0-0-0-
--.0*0-0--
.--.---*0*
..1*-1**-*
1*.*100.1*
---0-1.---
1*--0.00-*
--**1-0--*
1-000.--0-
**0-1.0--1
----1.--0-
*11*1*1---
0000----0-
0110-110-1
-00----01-

Generation = 8, Population = 78.
0*-**-1.--
.**.-..-01
0*00-.101.
-0..*--.11
.1-0-----0
--.1*10101
.-0.1--.-*
.***0-..-.
**..---.**
--01-*.10-
**-01.-1-.
--..*-1--*
*0111.-1-1
*.-0-.-00-
-----.-0--
***.***0--
1--1------
-----*----
-----0--*-

Generation = 9, Population = 87.
1*1*.--.00
....1**--*
1.11-.*-*.
--..*10.--
.*-101010-
-0.-.----*
.-1.--0*-*
*...-1..0*
*...10-***
-11-1.*---
.*0--.-*-.
--...--11.
*--*-*-*0*
*.-1-.011-
-0001*----
*******-0-
*-----10--
0--01.1-1-
----0100.0

Generation = 10, Population = 87.
**-**01.1-
*...***10*
-.**0..-..
00...*1.--
..-*1*1-1-
01.1*1---*
.--.--1*0*
.*..-*..-.
*..*--0*.*
----*.*100
.*-01.-*-.
00*..11*-*
.01.-.1.-*
*.---.1*--
0-1-*.00--
*......0-0
*-0---*10-
1111-.----
0-----11*-

Generation = 11, Population = 83.
**-*.1-.*-
*......-1*
-.**-..0*.
11....-*1-
..1**.----
1**-.-010*
*--.10**-*
....0*..0*
....---..*
11-1*..---
**01-.0.-*
1-..****-.
.--.-.-.0.
*.--1.*.11
----.*-100
*..*.*.-0-
*01--0**1-
*-**1.----
1-00-1*-.0

Generation = 12, Population = 76.
**-..-1.*-
*..**..-**
-.*.0..-..
**..*.1*-1
..-*..1--0
-.*-.--*-*
*-1*-1..-.
....-..*1*
...*-0-.**
--1-*..---
..--1.1*1.
*-******-.
.--.-.-.1*
..-1-**.*-
---0.*0*--
*.*..*.0--
*--1--**-0
*1..*.-011
*---0*.1.-

Generation = 13, Population = 92.
**1..1-**-
*.****.1**
-.*.-..0.*
.**.*.-*-*
.*-*.**11-
1**1*1-.-.
.--*--**0*
..**-.****
...*1-0*.*
-1-1*.*1-0
.*---.-.*.
.-.**...1*
.-1.1.-.-*
..0*-*..*-
0--1..1.--
.***.*.-00
*-----..11
**.**.-1--
*--0-***.0

Generation = 14, Population = 83.
*.-..*-*.-
*...**.*.*
1...-*.-.*
.*..**-.1*
..-....**-
**.-.-0.-*
.01.--..1*
..*.-.....
....--1..*
1*--*.*-01
..0--*1...
.0***...-*
.0*.**-.1*
.*-.1*...-
--1-.*-*-0
*****..0--
*01-00.*--
******-*--
*-010****-

Generation = 15, Population = 83.
..-.**-.*0
**..**....
**..0..0.*
....**1*-*
**-..***.0
***-.1-.0*
*--.--..**
.**.-...**
.*..10****
**-1..*-1-
*.1-1.-***
.-....*.-*
*1....1.**
.*0.-....-
00*-.*-.--
*......-00
.-*-1-.*1-
......1.--
*0-*1..**0

Generation = 16, Population = 76.
..-.**1..1
**.*..*..*
**.*-..1..
....*.*.-*
*.-......-
..*1.*-.-.
*0-.-1.*..
***.0**...
...**-*...
*.1-...--1
*.-1-*1..*
*0...**.1.
*-*...****
..-.-....1
-1*1..1.00
*.**...--1
.0.--0.*--
.**.**-.-1
.1-.*..**1

Generation = 17, Population = 88.
..-.**-..*
**.*..***.
**.*-**-*.
**......1.
..1***...0
*.***.0.-.
*-1.--....
*.*.-..*..
*...*0*...
.*-1..*-1*
*.---*-***
*1*.*...*.
*1...**..*
..-*-.*..-
-*.-..-.11
*..**.*0-*
*1.1-1*.1-
******1*-*
.*-***..*-

Generation = 18, Population = 78.
..-.**-**.
**.*....**
....-**1**
*.....****
*.-..*...-
......-.-.
*--.1-....
*..*0**...
*.***-*.*.
**--...1-*
*.11-*1...
.**.*.....
*-.*****..
**0.1****-
-.*-**-.*-
*..**.*1-*
.-.---..-1
......*.-*
**0....**-

Generation = 19, Population = 64.
..-.*.-***
..........
**..0*.*..
.........*
..-...***0
......-.-.
.0-**-....
*.*.-.**..
*.*..0*.*.
*.1-...-1.
*.-*1**...
*......*..
*1......*.
*.-.*...*1
-.*1..1..-
...**.**0*
.-.11-**1-
.*.....*-*
.*1....**-

Generation = 20, Population = 68.
..-...1.*.
....****..
....1.....
.....*...*
..-....**-
......0*0.
.-1*.1....
*.*.0.**..
*.**.1*.*.
*.*-...1*.
*.-*-***..
*...****..
**.....***
*.0*...***
0.*-..*..-
........1*
.1*---..-1
.*.*....-*
.**....**-

Generation = 21, Population = 48.
..-...*...
....*.**..
....*.....
........*.
..-......-
......1.-.
.0-**-..*.
....-..*..
*.*.**..*.
*.*1...-*.
*.-*1.....
*...*.....
*.****...*
*.-*..*..*
1.*-.....-
..*.....**
.-*---..--
*..*....-*
.**.....*-

Generation = 22, Population = 43.
..-..***..
......**..
.....*.*..
..........
..-......-
......-.0.
.--..1.*..
.**.-*.**.
..*.*..**.
*.*-.*.1..
*.-.-.....
*.*.......
*.*..*....
*.0..*....
*.*-....*-
..**......
.1*---..1-
...*....-.
.**......-

Generation = 23, Population = 35.
..-..*.*..
........*.
.......*..
..........
..-......-
......-.-.
.01..*.*..
.***-*....
..*.**....
...1..***.
*.-.-.....
*.........
*.**......
*.-*......
..*-.....1
...*......
.*.1--..-1
...*....1.
..*......-

Generation = 24, Population = 27.
..-.......
......***.
..........
..........
..-......-
......-.-.
.--**.*...
....0*....
.*...*.*..
...-****..
..-.-..*..
*.........
*.**......
..0*......
..*1.....-
...*......
...-1-..--
...*....-.
.........-

Generation = 25, Population = 29.
..-....*..
.......*..
.......*..
..........
..-......-
......1.-.
.-1**.....
...*-.....
.......*..
...1**.**.
..-.1*.*..
.*........
..**......
..1.*.....
...**....-
..***.....
...1-1..--
........-.
.........-

Generation = 26, Population = 36.
..-.......
......***.
..........
..........
..-......-
...*..-.-.
.0***.....
..**-.....
...*..***.
...*.*.**.
..-*-*.**.
..***.....
.***......
..*.*.....
.....*...-
..*..*....
..**1-..--
........-.
.........-

Generation = 27, Population = 34.
..-....*..
.......*..
.......*..
..........
..-......-
...**.-.-.
.1..*.....
.*..-..*..
...*..*.*.
..**.*...*
..-.1*.**.
.*........
.*........
.**.*.....
...***...-
..*..*....
..***-..--
...*....-.
.........-

Generation = 28, Population = 42.
..-.......
......***.
..........
..........
..-......-
...**.-.-.
.****.....
..*.0..*..
...**.***.
..**.*...*
..1****.*.
..........
**........
.**.**....
.*...*...-
..*..*....
..*.*-..--
..***...-.
.........-

Generation = 29, Population = 42.
..-....*..
.......*..
.......*..
..........
..-......-
....*.-.-.
.*...*....
.*..-.***.
......***.
.........*
..-..**...
.*****....
***.......
..*.**....
.*.*.**..-
.*****....
.**.*-..--
..*.*...-.
...*.....-

Generation = 30, Population = 34.
..-.......
......***.
..........
..........
..-......-
......-.-.
.....***..
....-*..*.
......*..*
.....*..*.
..1*.**...
*..****...
*.........
*...***...
.*....*..-
*.....*...
.....-..--
.**.*...-.
...*.....-

Generation = 31, Population = 41.
..-....*..
.......*..
.......*..
..........
..-......-
......1.-.
.....***..
....0*..*.
.....*****
....**.*..
..**...*..
.***..*...
**.*......
**...**...
**....**.-
..........
.*...-..--
..**....-.
..**.....-

Generation = 32, Population = 38.
..-.......
......***.
..........
..........
..-......-
.....***-.
....*..*..
....1....*
.........*
...***....
.*...*.*..
*...*.....
...****...
.....***..
**...***.-
**........
..*..-..--
.*.*....-.
..**.....-

Generation = 33, Population = 37.
..-....*..
.......*..
.......*..
..........
..-...*..-
.....***0.
....*..**.
....*...*.
...*.*....
....***...
...*.**...
...*......
...*...*..
..........
**...*.*.-
*.*...*...
*.*..-..--
.*.*....-.
..**.....-

Generation = 34, Population = 35.
..-.......
......***.
..........
..........
..-..**..-
.....*..-.
....*....*
...***.**.
...*..*...
...*......
...*..*...
..**..*...
..........
......*...
**....*..-
*.*...*...
*.**.-..--
.*.*....-.
..**.....-

Generation = 35, Population = 42.
..-....*..
.......*..
.......*..
..........
..-..**..-
....***.-.
...*..*.*.
...*.****.
..**.***..
..***.....
...**.....
..**......
..........
..........
**...***.-
*.**......
*..*.-..--
.*..*...-.
..**.....-

Generation = 36, Population = 34.
..-.......
......***.
..........
......*...
..-.*.*..-
....*...0.
...*....*.
...*....*.
........*.
......*...
..........
..***.....
..........
......*...
***...*..-
*.***.*...
*..**-..--
.*..*...-.
..**.....-

Generation = 37, Population = 35.
..-....*..
.......*..
......*...
.....*....
..-....*.-
...***.*1.
...**..***
.......***
.......*..
..........
...*......
...*......
...*......
.*........
*.*...**.-
*...*.....
*....1..--
.*..*...-.
..**.....-

Generation = 38, Population = 34.
..-.......
......**..
......*...
......*...
..-..*.**-
...*.*..-*
...*.*....
......*..*
.......*..
..........
..........
..***.....
..*.......
.**.......
*........-
*....**...
**..*-..--
.****...-.
..**.....-

Generation = 39, Population = 28.
..-.......
......**..
.....**...
.....**...
..-.**.**-
.....*..-.
.....**...
......*...
..........
..........
...*......
..**......
..........
.**.......
*........-
*....*....
*...*-..--
*...*...-.
.*..*....-

Generation = 40, Population = 30.
..-.......
.....***..
..........
..........
..-.*..*.0
.......*1.
.....**...
.....**...
..........
..........
..**......
..**......
.*.*......
.*........
*........-
**........
**..*-..--
**.***..-.
.........-

Generation = 41, Population = 29.
..-...*...
......*...
......*...
..........
..-....*.-
.....*.**.
.....*....
.....**...
..........
..........
..**......
.*..*.....
.*.*......
***.......
*........-
..........
...**-..--
******..-.
....*....-

Generation = 42, Population = 29.
..-.......
.....***..
..........
..........
..-...***-
.......**.
....**.*..
.....**...
..........
..........
..**......
.*..*.....
...*......
*.*.......
*........-
..........
.*...-..--
.**..*..-.
.**.**...-

Generation = 43, Population = 35.
..-...*...
......*...
......*...
.......*..
..-...*.*0
.....*....
....**.**.
....***...
..........
..........
..**......
....*.....
.***......
.*........
.*.......-
..........
.**..1..--
*..***..-.
.*****...-

Generation = 44, Population = 39.
..-.......
.....***..
......**..
......***.
..-...***1
....**...*
.......*..
....*.**..
.....*....
..........
...*......
.*..*.....
.***......
**........
.........-
.**.......
.***.*..--
*.....*.-.
.**..*...-

*** Life<Cell> 14x17 ***

Generation = 0, Population = 18.
-----------------
--0-------0-----0
----0---0--------
---------0-------
-----------0-----
---00------------
------------0----
--0--------------
-----------------
------------0----
---0---------0--0
--00-------------
------------0----
-----------------

*** Life<Cell> 1x8 ***

Generation = 0, Population = 8.
00000000

Generation = 3, Population = 4.
1-0--0-1

Generation = 6, Population = 4.
-01--10-

Generation = 9, Population = 2.
.-.11.-.

Generation = 12, Population = 0.
.-....-.

Generation = 15, Population = 0.
.-....-.

Generation = 18, Population = 0.
.-....-.

Generation = 21, Population = 0.
.-....-.

Generation = 24, Population = 0.
.-....-.

*** Life<Cell> 6x6 ***

Generation = 0, Population = 11.
0-0---
-0--0-
--0--0
--0---
--0--0
--0-0-

Generation = 5, Population = 18.
1-1-*1
*01.-*
0*--00
--1---
-*--0-
1-*--0

Generation = 10, Population = 17.
..*-*.
.***-.
1*..1-
*.1**1
-...0*
..**--

Generation = 15, Population = 11.
......
*..**.
*..*.*
*..*.*
0...-*
....--

Generation = 20, Population = 14.
..***.
..***.
.*...*
.**..*
.*..0.
....-1

Generation = 25, Population = 6.
......
......
......
**..**
.*..-*
....-.

Generation = 30, Population = 7.
......
......
......
**..**
**..-*
....-.

*** Life<Cell> 15x10 ***

Generation = 0, Population = 18.
----------
-----0----
----------
--0--0----
---0------
-------0-0
---0------
--------0-
---0------
-------0--
-------000
--0--0----
--------0-
----0-----
--0-------

Generation = 4, Population = 47.
---1------
-1---0-0--
---0------
00----1-10
---*-.-1--
---0-----1
--------11
----0---0.
---0---..-
---10--*--
--0-0*-001
01-*--0-01
--100---0*
1---0.-00-
0-----11-1

Generation = 8, Population = 67.
-.---*----
*.-0---*.1
--0-01-*-0
*..1*-*-.1
111...--0-
---..--*1.
----00*---
0---*1-0-.
--.*-00..-
--01-00*1-
*--10.11*1
-*-*0-*11.
00.*--*..*
*-00*.01*-
---*1***--

Generation = 12, Population = 67.
-.*.*.01--
.**--1-**.
-0-*-.1.0-
....**.1.*
-*****1*-0
11-...1.1.
--10--*0-*
0-1-..-1-*
*-*..--..1
--.*-1*.*-
*0-.-..1**
..*.-**.-*
0-..*-*.**
.-*-....*-
.0**.*.*-*

Generation = 16, Population = 59.
-*...*.*-*
*..-0****.
--1.0*1..0
......*.*.
-***..***.
.*....**-.
11-.1-*0..
**1-..0.-.
*1.*.*-.*.
.0..**.*.1
..-.-...*.
**..*....*
--*......*
...-.....*
.*****..0.

Generation = 20, Population = 57.
**.*..*.**
...*1.*.**
**-*-..**0
....*.*...
**....*.*.
*.........
*.1.-1.-..
*.**..*...
**....1***
.1.....*..
..0.-...*.
*.**....*.
1-.*..*..*
**.1...*.*
..*....*-*

Generation = 24, Population = 52.
......*.*.
........*.
..*.-....-
*.*....*..
*.**.*....
*...**....
*.*.*1.-..
*.*.***.**
..***.*...
..********
.*.*0.....
.*...***..
--....**..
.*...***..
..**....-.

Generation = 28, Population = 33.
..........
..........
...*0....-
...***....
.*..***...
..**......
..****.-..
....****..
..........
.......**.
....-.*...
...**.*.*.
--.***...*
....*...*.
.......*-.

Generation = 32, Population = 31.
..........
..........
....-....-
..........
..........
..........
......*-..
....**....
....**....
...*..****
...*.*.*..
..**.***..
--**.**..*
...*.*.*.*
....*.**.*

Generation = 36, Population = 28.
..........
..........
....-....-
..........
..........
..........
.......1..
...*...**.
..**...***
..**.**.**
.....***..
...**.....
--**...*..
.**.....*.
.**.......

Generation = 40, Population = 22.
..........
..........
....-....-
..........
..........
..........
.......**.
......*..*
..***.*..*
..***.**.*
.......*.*
..**....*.
--.**.....
..........
..........

*** Life<Cell> 6x15 ***

Generation = 0, Population = 18.
-0-0--------00-
0--------0-----
0----0--0------
---0-0--00-----
--0--------00-0
--------------0

Generation = 4, Population = 40.
-11----0-1-***.
*1**01---*--0-0
.100-----1---*-
10--1.-0-.---1*
1101-.011-1-.--
0--0-*--0-0-.--

Generation = 8, Population = 48.
1*--**-1-.-.***
.1..**1.*.1-.-*
**1-111.**1*0*-
-*1--.-**.*1-1.
**-1..1*--**..-
.--1-*00--1-*-*

Generation = 12, Population = 41.
*.1-..0*-.*..**
*......***.-*-*
..1--.-*..**0.1
***-.****.*.0*.
..-...1.*.....*
.0.****1..**..*

Generation = 16, Population = 24.
..1-....*.**...
..**....*.*1...
...*1.-.......*
..**.......*1..
..1.*.**.......
.-..****.......

*** Life<Cell> 6x8 ***

Generation = 0, Population = 15.
-----0--
------00
0-----0-
-00000--
-0--00--
-0--0---

Generation = 1, Population = 17.
----0--0
0------1
--000-1-
----1---
0---1-0-
01001---

Generation = 2, Population = 20.
0--0-001
-000---*
001-----
0-0--0--
1-0----0
-----00-

Generation = 3, Population = 24.
---1-1--
0-1-00-*
-1*--0-0
-0-01-00
*-10----
0-0-111-

Generation = 4, Population = 28.
0---0*01
-0*011-.
--.-011-
-1--*01-
*0--10-0
1-10*-*0

Generation = 5, Population = 21.
--0--.-*
-1*--*0*
--.-1--0
-*00.---
*---*--1
*1*-*1*-

Generation = 6, Population = 19.
--11-.-*
0**0-*-*
--.----1
-*-1*---
*0--*---
*-.-*-*-

Generation = 7, Population = 24.
0---0.0.
1*.--.-*
0-.-111*
-*-**0-0
*-1-*00-
*-.0.-.0

Generation = 8, Population = 25.
1--1-.-.
**.--.0*
11*--*-*
0*0..1-1
*0--.111
.1.-*1*-

Generation = 9, Population = 24.
*-1-0.0.
...0-.1*
*-.01*1*
1.-.*-1-
.1--.**-
**.0**.-

Generation = 10, Population = 26.
.--1-*1*
.**11.*.
.1.-*.-.
**-*.---
.*10..*1
***1***-

Generation = 11, Population = 29.
.0-*0***
.*.*-.**
.-.0**1.
*.0**-11
..*1..**
*..****-

Generation = 12, Population = 17.
.1-*-*.*
....1...
.1.1..*.
.*-..1*-
...*....
..*****-

Generation = 13, Population = 19.
.--.0...
...*-**.
.**-*.*.
..0.***1
...*....
..****.0

Generation = 14, Population = 16.
.--.-*..
..**-.*.
.**1....
.*1.*.**
.......*
..***..-

Generation = 15, Population = 19.
.-1.0...
.*.*1...
...-****
.*-...**
.*..****
...*...0

Generation = 16, Population = 14.
.--.1...
..*.*.*.
..*-*..*
..1.....
..*.**..
....**.1

Generation = 17, Population = 18.
.-1***..
....*...
.**-.*..
.*-.**..
....***.
...****-

Generation = 18, Population = 15.
.1****..
.*......
.**1.*..
.*-*....
........
...*..*1

Generation = 19, Population = 14.
.-***...
*....*..
**.-*...
.*1**...
..*.....
.......*

Generation = 20, Population = 14.
.1.**...
*.*..*..
*..-**..
*.*.*...
.**.....
........

Generation = 21, Population = 17.
.-***...
*.*..*..
*..1**..
*.*.**..
.***....
........

Generation = 22, Population = 17.
.1***...
..*..*..
*.**..*.
*....*..
.****...
..*.....

Generation = 23, Population = 18.
.****...
.....*..
..*****.
*....*..
.****...
.**.....

Generation = 24, Population = 12.
..***...
.*....*.
...*..*.
......*.
*..**...
.*......

Generation = 25, Population = 10.
..**....
....**..
.....***
...***..
........
........

Generation = 26, Population = 9.
...**...
...***..
...*....
....**..
....*...
........

Generation = 27, Population = 10.
...*.*..
..*..*..
...*....
...***..
....**..
........

Generation = 28, Population = 10.
....*...
..**....
..**.*..
...*.*..
...*.*..
........

Generation = 29, Population = 5.
...*....
..*.....
........
...*.**.
........
........

Generation = 30, Population = 0.
........
........
........
........
........
........

Generation = 31, Population = 0.
........
........
........
........
........
........

Generation = 32, Population = 0.
........
........
........
........
........
........

Generation = 33, Population = 0.
........
........
........
........
........
........

Generation = 34, Population = 0.
........
........
........
........
........
........

*** Life<Cell> 1x5 ***

Generation = 0, Population = 5.
00000

Generation = 4, Population = 2.
-0-0-

Generation = 8, Population = 2.
-0-0-

*** Life<Cell> 2x19 ***

Generation = 0, Population = 15.
00-0-0-0-000-------
0-00---00-------0-0

Generation = 5, Population = 20.
0-**-1-.*.--**110--
.*11*0*.*11---1----

Generation = 10, Population = 11.
-*..1..*.*--*..*-.-
**.....*.*..1..----

Generation = 15, Population = 7.
-*..-.....**....-.-
**........**...----

Generation = 20, Population = 7.
-*..-.....**....-.-
**........**...----

Generation = 25, Population = 7.
-*..-.....**....-.-
**........**...----

Generation = 30, Population = 7.
-*..-.....**....-.-
**........**...----

Generation = 35, Population = 7.
-*..-.....**....-.-
**........**...----

*** Life<Cell> 20x9 ***

Generation = 0, Population = 17.
-------00
-------0-
---------
0------0-
-----0---
-----0---
---------
---------
---------
---------
---------
---------
---------
---0--0-0
0--0-0---
--------0
-0-------
---------
---------
-0-----0-

Generation = 2, Population = 45.
-----010-
0----0-*-
-----0-00
0-0----0-
---0---1-
0--0-----
-----1---
-----0---
---------
---------
---------
---0--0-0
0--1-0---
-0--100-0
0-1*-0-0-
---1-----
1----0---
-1-----00
-1-------
-0-0-0-0-

Generation = 4, Population = 55.
---01010-
---0-0-.-
-------**
--000--0-
-0-----.1
-1-----1-
-----.---
0------0-
-----1---
---0-00-0
0--1-0---
--------0
-0-.-----
--0*.-*10
-1..---0-
-0-.1-01-
-0---0---
-*-0--1**
1--1-1---
-*-0-0-01

Generation = 6, Population = 83.
-01--*-*-
-01-1*-.-
-0-01-1..
0-*0*11--
---*--0.-
1.1-01---
-1---*--0
0100--101
1----.-1-
10-*0**-0
0-1.---0-
--0*-1010
100.-1-1-
0-***1..*
-..*1----
-01.-1*-1
*0---0-01
-.---1.*.
1-11-.--0
-.---*-*.

Generation = 8, Population = 71.
1-11-.1.-
---*-*0.0
--0-.-**.
01*-*-.*0
-1-.---.1
-.---1011
1.-1-*--*
-.---1.-1
-1--1.1.1
.--.-..0-
-1..-1---
0-*.---1-
1-**-1-.-
-1...-...
1.*.1*1-0
-0.*--.-.
.0-010101
0*-*-..*.
11..1.010
-*-*-.-..

Generation = 10, Population = 88.
10*1*..**
1-*.-.-.0
-1-0*1...
-.*0.-*.-
0.-.-*-*1
-*-*-101.
-*-1-*--*
1.0*-*.*1
*-1-1.1..
.-0.-.*00
11*.11-10
-1..-1---
.1.*01-.0
*-...-**.
1****.*-0
0-..*-.-*
.00*1-1-*
-.0*1.*..
1..*-*-.*
0.0.-.-.*

Generation = 12, Population = 83.
10.1..***
.1..-*-*-
-110*....
*..-.*.*-
-.1*-.-.*
1.1.-*01*
-*11-*--*
.*0*1*.*-
.-1--***.
*-0.0**-0
*****-11-
--..1---1
*.*.0-0.-
.-...1*.*
..***..1*
--...-.-*
.-*..0*-.
1.0*-.**.
*...**1..
-*0.0.-..

Generation = 14, Population = 61.
.-.1.*..*
.-..-.*.-
---0**...
...0..*.0
-.1*1.**.
-.-.*.--*
-.-11*0-*
..-.-..*1
.1-0-....
**-.0..1-
*.*..*-.1
--**---11
..**---*0
.1*.....*
..*.....*
--...-.1*
.*...-.-.
*.-*-*.*.
*...**-*.
-*-*-*-..

*** Life<Cell> 7x17 ***

Generation = 0, Population = 17.
-------0--------0
0-0---0-----00---
------0------0---
---0-0-0-------0-
----------0------
-------0------0--
------------0----

Generation = 5, Population = 62.
--------0---*.100
-0*.**1*-*11.-*0*
--1-001-0*--1--**
1-1.0-.--1------0
000--0.*000--010*
--*1001--0-*.--.*
0-00-010--1-11-0*

Generation = 10, Population = 42.
00*--101--0..**-0
*.......-.1.*..-.
--.0*---..1*.11..
.1-.....1.--101-0
--**--..10*.*-*-.
-1..-1--.-...--*.
10--*-..11.0.*-..

*** Life<Cell> 20x4 ***

Generation = 0, Population = 14.
--0-
----
----
----
0--0
---0
----
-0--
----
-0--
-0--
---0
---0
-0--
---0
----
-0--
----
----
-0-0

Generation = 1, Population = 40.
-0-0
--0-
----
0--0
-001
0-01
-0-0
0-0-
----
010-
0100
-001
-001
0-0-
-00-
-0-0
0-0-
-0--
-0-0
0---

Generation = 2, Population = 23.
0-0-
----
0-00
---1
011*
---*
0--1
-0--
-0--
-*--
----
-1-*
----
----
----
-1--
----
-1-0
-1--
---0

Generation = 3, Population = 33.
---0
---0
--1-
-00-
1--*
-0-*
--0*
-100
0-0-
0.0-
---0
0--.
-0-1
----
-0--
0-0-
---0
0*--
0*0-
-00-

Generation = 4, Population = 21.
--01
---1
--*-
-1--
-1-*
--0*
-0-.
-*--
10--
1.1-
----
---.
----
---0
----
-1--
-0--
-.-0
-.-0
---0

Generation = 5, Population = 39.
-01-
--0*
--*-
0*-1
1*1*
-01*
01-.
-*0-
----
*.-0
0-0-
---.
---1
--0-
-0-0
0*0-
0100
-.01
-.0-
--01

Generation = 6, Population = 37.
01--
--1*
0-.0
-.-*
-.*.
01**
1*0*
-*10
1000
.*--
1---
0-0.
----
---0
-1--
-.-0
-*--
0.1-
-*-0
-0-*

Generation = 7, Population = 33.
1*-1
--**
-0.-
0.-*
1...
-*..
-.-.
0.-1
*-1-
..-0
*-0-
1--.
0-01
-00-
0-0-
-.0-
-*-0
-.--
-*01
01-.

Generation = 8, Population = 36.
**1*
00.*
--.-
1*0.
**..
-...
1.-.
1*--
.--0
..1-
.---
-1-*
10-*
011-
-1-0
0.1-
0.0-
-*1-
-*-*
1--.

Generation = 9, Population = 31.
*.-*
--.*
--.0
-.1.
*.*.
-*..
**-.
-*11
.0--
..--
.100
-*-.
-10*
--*0
0*--
1.*-
1.-0
-.--
-*0.
---.

Generation = 10, Population = 41.
..1.
0-**
--*1
1***
..*.
0.*.
*.-.
-.-*
.1-0
.*10
.--1
1.0.
1-1*
01.-
-.00
-.*-
**--
0*11
0.1.
-10.

Generation = 11, Population = 35.
.***
--..
--.*
*...
*...
1...
.*0.
1.1.
.*1-
.*-1
.10*
*.1.
-1-*
-*.-
0.-1
1.*-
*.00
1.**
1.-.
-*-.

Generation = 12, Population = 30.
..*.
-0.*
0-..
....
**..
*...
*.-.
-.-*
*.--
*.-*
*-1*
*.*.
-*1.
-*.-
1.--
-.*0
*.1-
-.**
*.1.
-.0.

Generation = 13, Population = 26.
..*.
--*.
--..
**..
**..
*...
..-.
-.1.
..--
*.-*
*--*
*...
-.-.
-**-
-*01
-.*1
..-0
-.**
..-.
1*1.

Generation = 14, Population = 29.
....
-0..
00..
**..
....
**..
..0.
-.-.
..10
..1.
*11.
....
1*1.
0*.-
1.--
-*.*
..1-
-.**
..-*
***.

Generation = 15, Population = 25.
....
-1..
-1*.
**..
....
.*..
.*-.
-.-*
..-1
..-.
.--.
....
-.*.
1.*-
*.-1
-**.
.**0
-.**
..1*
.**.

Generation = 16, Population = 24.
....
0**.
-**.
***.
**..
....
..0.
-.1.
..1*
..-.
.--.
....
1*..
*.*-
*.0-
-...
...-
-...
..*.
.***

Generation = 17, Population = 25.
.*..
1.*.
0..*
....
*.*.
.*..
..1.
-*-.
..-*
..1.
.--.
....
-*..
*.*0
..11
1...
...-
-...
.***
.***

Generation = 18, Population = 19.
.*..
*.*.
1*..
.*..
.*..
.**.
.*-.
1.-.
..-.
..-.
.-1.
....
-**.
...-
..--
-...
...-
-.*.
.*.*
.*.*

Generation = 19, Population = 21.
.*..
*.*.
-.*.
.**.
**..
***.
**-.
-.-.
..-.
..1.
.1-.
.**.
1...
...-
..--
-...
...-
-.*.
.*.*
....

Generation = 20, Population = 19.
.*..
..*.
1.**
*.*.
....
..*.
*.-.
1.-.
..1.
..-.
.*1.
***.
-*..
...-
..--
-...
...-
-.*.
..*.
....

Generation = 21, Population = 18.
....
..**
*.**
..**
.*..
....
.*1.
**1.
..-.
.*-.
*.-.
*...
-**.
...-
..--
-...
...-
-...
....
....

Generation = 22, Population = 16.
....
.***
....
...*
..*.
.**.
*.-.
*.-.
*.1.
..1.
**-.
*...
-*..
...-
..--
-...
...-
-...
....
....

Generation = 23, Population = 18.
..*.
..*.
...*
....
.***
.**.
*.1.
*.1.
..*.
*.*.
**-.
*...
-...
...-
..--
-...
...-
-...
....
....

Generation = 24, Population = 17.
....
..**
....
...*
.*.*
*...
*.-*
..-*
..**
*.*.
*.-.
**..
1...
...-
..--
-...
...-
-...
....
....

Generation = 25, Population = 20.
....
....
..**
..*.
..*.
***.
..1.
..-*
.***
..**
*.1.
**..
**..
...-
..--
-...
...-
-...
....
....

Generation = 26, Population = 20.
....
....
..**
.**.
..**
..**
..**
.*1*
.*..
....
*.**
..*.
**..
...-
..--
-...
...-
-...
....
....

Generation = 27, Population = 18.
....
....
.***
.*..
....
.*..
....
.***
.*..
.**.
.***
*.**
.*..
...-
..--
-...
...-
-...
....
....

Generation = 28, Population = 16.
....
..*.
.**.
.*..
....
....
.*..
.**.
*..*
*..*
*...
*..*
.**.
...-
..--
-...
...-
-...
....
....

Generation = 29, Population = 21.
....
.**.
.**.
.**.
....
....
.**.
***.
*..*
**..
**..
*.*.
.**.
...-
..--
-...
...-
-...
....
....

Generation = 30, Population = 16.
....
.**.
*..*
.**.
....
....
*.*.
*..*
....
..*.
..*.
*.*.
.**.
...-
..--
-...
...-
-...
....
....

Generation = 31, Population = 14.
....
.**.
*..*
.**.
....
....
.*..
.*..
....
....
..**
..**
.**.
...-
..--
-...
...-
-...
....
....

Generation = 32, Population = 11.
....
.**.
*..*
.**.
....
....
....
....
....
....
..**
....
.***
...-
..--
-...
...-
-...
....
....

Generation = 33, Population = 10.
....
.**.
*..*
.**.
....
....
....
....
....
....
....
.*..
..*.
..*0
..--
-...
...-
-...
....
....

Generation = 34, Population = 13.
....
.**.
*..*
.**.
....
....
....
....
....
....
....
....
.***
..*1
..11
-...
...-
-...
....
....

Generation = 35, Population = 10.
....
.**.
*..*
.**.
....
....
....
....
....
....
....
..*.
.*.*
...*
..--
-...
...-
-...
....
....

Generation = 36, Population = 10.
....
.**.
*..*
.**.
....
....
....
....
....
....
....
..*.
...*
..*.
..-1
-...
...-
-...
....
....

Generation = 37, Population = 10.
....
.**.
*..*
.**.
....
....
....
....
....
....
....
....
..**
..**
..--
-...
...-
-...
....
....

Generation = 38, Population = 12.
....
.**.
*..*
.**.
....
....
....
....
....
....
....
....
..**
..**
..11
-...
...-
-...
....
....

Generation = 39, Population = 9.
....
.**.
*..*
.**.
....
....
....
....
....
....
....
....
..**
.*..
..--
-...
...-
-...
....
....

Generation = 40, Population = 8.
....
.**.
*..*
.**.
....
....
....
....
....
....
....
....
..*.
..*.
..--
-...
...-
-...
....
....

Generation = 41, Population = 7.
....
.**.
*..*
.**.
....
....
....
....
....
....
....
....
....
....
..1-
-...
...-
-...
....
....

Generation = 42, Population = 7.
....
.**.
*..*
.**.
....
....
....
....
....
....
....
....
....
....
..-1
-...
...-
-...
....
....

Generation = 43, Population = 7.
....
.**.
*..*
.**.
....
....
....
....
....
....
....
....
....
....
..1-
-...
...-
-...
....
....

Generation = 44, Population = 7.
....
.**.
*..*
.**.
....
....
....
....
....
....
....
....
....
....
..-1
-...
...-
-...
....
....

Generation = 45, Population = 7.
....
.**.
*..*
.**.
....
....
....
....
....
....
....
....
....
....
..1-
-...
...-
-...
....
....

*** Life<Cell> 2x19 ***

Generation = 0, Population = 15.
0-0-00-00-----00-0-
--0---0------0-0-00

Generation = 2, Population = 17.
0-*0----*10-00*-0--
1-*---0-1--0---*0--

Generation = 4, Population = 22.
*-*-*11-*-*-*0*1--0
.-*-----*000--0*011

Generation = 6, Population = 15.
.0.1*-*1*-.1*0.--1-
.-.1--1-*0-----.--1

Generation = 8, Population = 20.
.-*1*1*1*-...-.1-1-
.1**01*-*--*1-0.0--

Generation = 10, Population = 13.
.0...**-.-*..-.----
....***1.**..00.--1

Generation = 12, Population = 8.
.-.....1.-*..**----
.........**..-*.0--

Generation = 14, Population = 8.
.-.....-.-*..*.**--
.........**..-..0-1

Generation = 16, Population = 9.
.-.....-.-*...**.-*
.........**..-**--1

Generation = 18, Population = 9.
.-.....-.-*..*...**
.........**..*..-**

Generation = 20, Population = 7.
.-.....-.-*.....*.*
.........**.....*.*

Generation = 22, Population = 3.
.-.....-.-*........
.........**........

Generation = 24, Population = 3.
.-.....-.-*........
.........**........

Generation = 26, Population = 3.
.-.....-.-*........
.........**........

Generation = 28, Population = 3.
.-.....-.-*........
.........**........

Generation = 30, Population = 3.
.-.....-.-*........
.........**........

Generation = 32, Population = 3.
.-.....-.-*........
.........**........

Generation = 34, Population = 3.
.-.....-.-*........
.........**........

Generation = 36, Population = 3.
.-.....-.-*........
.........**........

Generation = 38, Population = 3.
.-.....-.-*........
.........**........

Generation = 40, Population = 3.
.-.....-.-*........
.........**........

*** Life<Cell> 2x6 ***

Generation = 0, Population = 11.
00000-
000000

Generation = 3, Population = 7.
1-*-01
1-**-.

Generation = 6, Population = 7.
.1**1.
.1**-.

Generation = 9, Population = 0.
.-....
.-..-.

Generation = 12, Population = 0.
.-....
.-..-.

Generation = 15, Population = 0.
.-....
.-..-.

Generation = 18, Population = 0.
.-....
.-..-.

Generation = 21, Population = 0.
.-....
.-..-.

Generation = 24, Population = 0.
.-....
.-..-.

Generation = 27, Population = 0.
.-....
.-..-.

Generation = 30, Population = 0.
.-....
.-..-.

Generation = 33, Population = 0.
.-....
.-..-.

Generation = 36, Population = 0.
.-....
.-..-.
