26

13 12
15
2 2
6 3
11 4
10 7
10 5
10 11
8 7
4 10
2 9
1 0
2 7
3 6
1 6
5 2
10 0
37 6

13 1
4
8 0
0 0
11 0
2 0
44 26

14 16
6
11 5
12 5
11 1
0 15
8 2
0 10
44 4

23 6
24
11 0
18 5
4 0
2 4
6 3
15 1
9 2
8 2
12 0
13 2
7 3
17 0
8 1
7 0
1 1
18 4
21 1
7 5
19 0
5 0
13 5
3 4
11 5
13 3
20 3

10 6
1
7 4
42 20

3 22
12
0 1
2 3
2 14
1 4
2 5
0 14
0 4
0 16
0 19
0 9
2 20
1 16
6 3

21 11
7
16 7
20 8
14 8
3 8
4 8
7 8
12 5
43 8

8 17
24
4 14
0 13
3 6
5 7
6 0
2 7
7 8
1 5
3 14
5 15
2 1
2 13
5 11
1 15
6 7
3 8
1 0
7 2
5 16
7 4
2 12
6 6
3 0
4 16
4 3

22 9
8
0 7
4 5
12 3
10 6
9 5
11 7
5 4
4 2
40 1

24 1
2
10 0
3 0
25 4

6 18
3
4 4
5 3
4 9
25 22

22 4
9
15 3
9 1
11 1
3 1
15 1
4 2
21 3
12 1
17 1
19 9

21 22
15
6 19
4 21
2 0
1 5
2 14
18 1
6 7
14 9
14 15
13 4
17 4
17 6
7 15
14 19
4 10
28 23

16 24
23
5 23
14 15
8 21
7 5
9 10
1 20
10 14
8 0
3 19
1 23
6 22
0 18
4 9
10 15
10 21
6 12
1 6
7 20
2 7
13 20
13 10
10 11
7 22
39 24

8 12
12
3 4
7 3
2 7
7 10
2 6
4 3
2 2
0 11
3 8
7 4
7 5
5 4
38 16

16 14
18
6 8
1 2
11 1
4 12
10 6
1 7
2 4
14 3
10 13
15 2
9 10
3 3
9 11
9 1
13 7
15 6
15 0
14 7
49 32

10 6
15
9 1
9 5
7 3
1 1
1 3
6 4
0 1
1 4
7 4
9 0
3 0
0 3
2 0
3 1
4 2
35 20

25 13
8
8 3
23 1
12 10
7 8
18 11
15 6
23 5
6 9
31 26

4 11
11
1 3
0 3
3 7
0 8
3 4
0 7
0 5
2 4
3 1
0 9
1 10
35 29

24 1
19
0 0
16 0
10 0
13 0
22 0
7 0
17 0
9 0
1 0
3 0
2 0
11 0
14 0
23 0
15 0
5 0
6 0
4 0
21 0
50 15

3 23
25
1 17
2 10
1 16
0 3
2 0
0 9
1 8
0 15
1 7
0 6
0 5
0 14
0 17
1 20
1 14
0 12
0 22
1 19
1 5
2 12
1 22
2 20
2 8
2 2
1 4
16 4

23 14
1
22 6
26 21

20 4
25
19 3
8 3
12 2
8 0
15 2
2 0
5 0
7 2
15 3
17 1
2 2
7 3
5 3
17 3
0 1
12 0
8 1
11 1
1 1
16 2
17 0
9 3
12 1
18 1
1 3
45 7

25 18
20
7 1
9 6
11 8
23 9
13 15
2 8
3 6
7 3
14 2
6 11
0 14
6 10
22 8
5 10
23 10
13 16
11 5
3 7
8 1
23 1
20 11

18 18
6
3 12
14 13
6 8
2 12
5 15
16 8
27 15

9 18
18
0 5
0 1
6 7
6 13
6 9
6 15
5 5
2 17
3 4
4 10
5 9
5 3
3 3
5 16
8 6
4 4
1 1
8 0
7 5
