24

6 4
23
3 0
2 2
3 2
3 1
0 0
5 3
1 1
4 1
1 0
1 2
2 1
5 0
1 3
0 1
2 3
0 3
4 2
0 2
5 2
4 0
4 3
2 0
5 1
21 15

20 12
21
2 9
0 4
6 3
9 11
6 4
12 3
17 1
16 6
18 7
6 9
0 11
1 2
6 10
7 6
17 2
13 11
19 8
4 7
3 11
8 4
0 9
9 6

8 6
22
4 3
6 0
5 3
2 1
4 2
4 0
1 4
1 5
7 5
7 0
0 5
1 2
5 5
3 4
7 1
1 0
4 5
6 2
1 1
2 4
1 3
2 5
45 17

8 20
20
1 15
2 10
7 5
6 8
3 3
2 17
5 9
6 10
7 16
1 5
6 11
5 3
3 19
6 7
6 6
3 2
7 10
7 8
7 1
7 0
10 1

24 24
25
18 13
4 22
18 18
13 0
3 4
18 15
8 14
1 6
14 15
20 12
11 0
9 13
8 16
3 12
8 4
20 4
18 3
10 17
23 19
5 22
21 18
21 19
10 9
17 8
4 1
9 2

22 14
7
14 2
4 8
5 11
19 11
10 6
6 13
7 6
32 31

8 3
6
6 1
2 0
7 0
7 1
4 2
5 2
31 18

7 17
2
4 12
1 13
15 5

15 2
7
6 0
13 0
9 0
10 0
9 1
4 0
5 0
6 6

2 18
10
0 12
1 4
0 2
1 3
0 14
1 13
1 17
1 10
1 8
1 12
26 4

23 1
12
0 0
6 0
1 0
14 0
22 0
4 0
15 0
17 0
9 0
5 0
20 0
2 0
24 12

8 6
13
2 2
3 0
0 2
5 3
6 3
2 1
5 0
6 5
2 5
3 5
2 0
0 5
2 3
28 12

11 16
17
2 0
8 15
6 11
0 0
9 0
9 3
5 6
5 13
1 1
9 15
4 15
2 9
4 3
4 11
7 10
3 13
10 15
25 17

16 19
10
3 3
13 12
8 18
7 2
11 14
8 14
7 17
15 3
12 7
9 15
26 21

19 15
6
8 13
17 12
13 11
5 11
10 3
11 13
13 4

25 17
3
23 3
1 2
21 6
2 1

14 23
24
3 22
4 0
0 2
0 21
6 8
6 12
3 9
2 19
2 18
6 4
6 20
12 14
2 15
4 21
0 22
5 10
10 17
5 20
2 2
7 12
11 17
1 6
8 13
1 16
14 5

21 17
15
20 9
12 15
10 16
1 13
4 15
18 11
12 6
8 10
6 8
9 14
19 14
4 16
20 6
4 14
0 16
15 6

7 8
6
5 0
0 5
3 3
2 3
0 7
3 4
45 39

19 6
3
13 1
15 2
11 0
11 2

5 15
24
4 5
3 1
1 13
3 10
1 14
0 8
3 11
4 0
1 5
0 4
1 7
4 1
0 2
2 11
4 3
3 13
2 14
3 12
3 8
0 9
3 4
4 7
3 2
2 8
47 44

23 22
15
3 0
2 0
15 17
17 16
4 1
9 12
1 0
9 4
22 18
15 19
8 15
15 18
15 3
0 8
7 16
2 2

11 21
11
7 20
2 14
5 5
6 0
9 19
6 15
10 10
7 2
5 16
1 6
9 15
19 17

15 8
19
3 2
13 2
11 7
10 3
3 1
1 7
12 6
3 4
2 4
6 2
7 0
5 7
9 3
7 2
6 7
6 5
13 3
11 6
14 3
10 2
