*** Life<Cell> 6x5 ***

Generation = 0, Population = 6.
0----
0----
----0
0----
0---0
-----

Generation = 10, Population = 11.
*-.*.
*.*0*
1.-.0
.-.--
..*-.
.11--

Generation = 20, Population = 15.
.*...
*.*..
.*0*.
.0**.
.**1.
.**1.

Generation = 30, Population = 0.
.....
.....
..-..
.....
.....
.....

Generation = 40, Population = 0.
.....
.....
..-..
.....
.....
.....

Generation = 50, Population = 0.
.....
.....
..-..
.....
.....
.....

Generation = 60, Population = 0.
.....
.....
..-..
.....
.....
.....

*** Life<Cell> 9x4 ***

Generation = 0, Population = 18.
-00-
000-
-000
0-00
-00-
0---
0--0
-00-
----

Generation = 10, Population = 18.
-*0-
*..1
*.--
-**-
0.*.
.0**
****
.-*0
.-..

Generation = 20, Population = 8.
-***
...*
.**1
....
-.*.
....
....
.-.-
.-..

Generation = 30, Population = 3.
.*..
..*.
.*.-
....
-...
....
....
.-.-
.-..

Generation = 40, Population = 0.
....
....
...-
....
-...
....
....
.-.-
.-..

Generation = 50, Population = 0.
....
....
...-
....
-...
....
....
.-.-
.-..

Generation = 60, Population = 0.
....
....
...-
....
-...
....
....
.-.-
.-..

Generation = 70, Population = 0.
....
....
...-
....
-...
....
....
.-.-
.-..

Generation = 80, Population = 0.
....
....
...-
....
-...
....
....
.-.-
.-..

Generation = 90, Population = 0.
....
....
...-
....
-...
....
....
.-.-
.-..

*** Life<Cell> 9x7 ***

Generation = 0, Population = 24.
0-0-0-0
0-0-0-0
------0
0-0-0-0
0-0-0--
--0-0--
0---0-0
0-0-0--
-------

Generation = 10, Population = 27.
*-*1.-.
**.**--
1-.1111
.*.-...
.-.-1-.
.1...11
.*10-10
*-.1.-.
-0**-..

Generation = 20, Population = 15.
...**..
..**...
...*.1.
....*..
....**.
....**.
...-*.-
.1...0.
1-.....

*** Life<Cell> 5x9 ***

Generation = 0, Population = 8.
0-------0
0-------0
0-------0
0-------0
---------

Generation = 10, Population = 20.
.0..-..0.
.10*-*01.
01-*-*-10
.-.*-*.-.
1--1-1--1

Generation = 20, Population = 8.
....-....
..-.-.-..
....-....
.**.-.**.
.**.-.**.

Generation = 30, Population = 8.
....-....
..-.-.-..
....-....
.**.-.**.
.**.-.**.

Generation = 40, Population = 8.
....-....
..-.-.-..
....-....
.**.-.**.
.**.-.**.

Generation = 50, Population = 8.
....-....
..-.-.-..
....-....
.**.-.**.
.**.-.**.

Generation = 60, Population = 8.
....-....
..-.-.-..
....-....
.**.-.**.
.**.-.**.

Generation = 70, Population = 8.
....-....
..-.-.-..
....-....
.**.-.**.
.**.-.**.

Generation = 80, Population = 8.
....-....
..-.-.-..
....-....
.**.-.**.
.**.-.**.

Generation = 90, Population = 8.
....-....
..-.-.-..
....-....
.**.-.**.
.**.-.**.

*** Life<Cell> 6x8 ***

Generation = 0, Population = 25.
000----0
00000000
-0000-00
-0-----0
0-0-00-0
--------

Generation = 10, Population = 20.
**1-*.-.
*-.-*0..
.1*..11*
-.*..-.1
-.1*1..*
..--**..

*** Life<Cell> 6x6 ***

Generation = 0, Population = 12.
0---00
-0---0
0---0-
0---00
00----
------

Generation = 10, Population = 15.
.0..-.
-1....
..*-..
**1**1
-..1*1
.*-*-1

Generation = 20, Population = 6.
...**.
-.*..*
...**.
.....-
-.....
....-.

Generation = 30, Population = 6.
...**.
-.*..*
...**.
.....-
-.....
....-.

Generation = 40, Population = 6.
...**.
-.*..*
...**.
.....-
-.....
....-.

Generation = 50, Population = 6.
...**.
-.*..*
...**.
.....-
-.....
....-.

*** Life<Cell> 7x6 ***

Generation = 0, Population = 6.
----00
-0----
------
-----0
------
0---0-
------

Generation = 10, Population = 16.
1*..*-
*-1-.*
*.-11*
*.-..-
-1.-*.
1..*.-
1--.--

Generation = 20, Population = 14.
-....-
..*1.*
..**.*
.**.**
-*....
.....-
***.--

Generation = 30, Population = 3.
-....-
......
......
......
-.....
..*...
..**-.

Generation = 40, Population = 0.
-....-
......
......
......
-.....
......
......

Generation = 50, Population = 0.
-....-
......
......
......
-.....
......
......

Generation = 60, Population = 0.
-....-
......
......
......
-.....
......
......

Generation = 70, Population = 0.
-....-
......
......
......
-.....
......
......

*** Life<Cell> 7x8 ***

Generation = 0, Population = 25.
-000-00-
-0000-00
---000--
--0000-0
---0--00
--0--00-
--------

Generation = 10, Population = 22.
.**-*..*
*...0-..
-*..*.-*
1***1..*
*-1....*
*.1....-
-*.---*.

Generation = 20, Population = 23.
...1....
.*.*-*.*
.**...**
*.......
**-*.*..
*.***...
1*.-*-**

Generation = 30, Population = 11.
......*.
.....*.*
....*..*
....**..
....**..
...**...
-..-.-..

Generation = 40, Population = 4.
........
........
........
........
.**.....
.**.....
-.......

Generation = 50, Population = 4.
........
........
........
........
.**.....
.**.....
-.......

*** Life<Cell> 5x8 ***

Generation = 0, Population = 20.
0-0000-0
-0000000
-----0-0
00-00--0
--------

Generation = 10, Population = 13.
.*-.1-.*
.-*..**.
.1*0-..*
.....**.
---.-.0.

Generation = 20, Population = 15.
..-..*..
...**.**
...1*..*
**..***.
-*...*-.

Generation = 30, Population = 5.
..-.....
....**..
...***..
........
-.......

*** Life<Cell> 6x7 ***

Generation = 0, Population = 14.
--0-0-0
0-----0
0---0--
0-0---0
0-0-0-0
-------

Generation = 10, Population = 20.
-*---..
*-00.0*
*.*1-..
.*.-.1*
.*1-101
.1.0--1

Generation = 20, Population = 15.
*.*....
*-*..**
...-...
***..**
.*...*.
...1*-.

Generation = 30, Population = 0.
.......
.-.....
.......
.......
.......
.......

Generation = 40, Population = 0.
.......
.-.....
.......
.......
.......
.......

Generation = 50, Population = 0.
.......
.-.....
.......
.......
.......
.......

Generation = 60, Population = 0.
.......
.-.....
.......
.......
.......
.......

Generation = 70, Population = 0.
.......
.-.....
.......
.......
.......
.......

Generation = 80, Population = 0.
.......
.-.....
.......
.......
.......
.......

Generation = 90, Population = 0.
.......
.-.....
.......
.......
.......
.......

*** Life<Cell> 6x4 ***

Generation = 0, Population = 13.
000-
0-00
-000
00--
-0-0
----

*** Life<Cell> 8x8 ***

Generation = 0, Population = 31.
0-0--00-
0--00-0-
-0---000
000-00--
--00000-
000---0-
0-0-00-0
--------

Generation = 10, Population = 31.
.**--*10
--0***..
-***.**-
.*..0*.*
.......*
...****-
.-*0..-1
.0*-*.*1

Generation = 20, Population = 25.
****....
*...*.*.
.*.*****
.*.....*
....*..*
..*..*.*
.*.....*
.**....*

Generation = 30, Population = 21.
..*..***
.****..*
....*.**
..*..**.
...*....
.*.**...
........
.**.....

Generation = 40, Population = 4.
........
......**
......**
........
........
........
........
........

Generation = 50, Population = 4.
........
......**
......**
........
........
........
........
........

Generation = 60, Population = 4.
........
......**
......**
........
........
........
........
........

Generation = 70, Population = 4.
........
......**
......**
........
........
........
........
........

Generation = 80, Population = 4.
........
......**
......**
........
........
........
........
........

*** Life<Cell> 9x4 ***

Generation = 0, Population = 8.
----
-0--
--0-
-0--
----
00-0
----
-0-0
----

Generation = 10, Population = 13.
---0
--.*
.00*
..1-
-...
..-.
*-..
**-*
*-*1

Generation = 20, Population = 1.
--1.
-...
....
...-
-...
..-.
.-..
..-.
.-.-

Generation = 30, Population = 1.
1--.
-...
....
...-
-...
..-.
.-..
..-.
.-.-

Generation = 40, Population = 2.
1-1.
-...
....
...-
-...
..-.
.-..
..-.
.-.-

Generation = 50, Population = 1.
--1.
-...
....
...-
-...
..-.
.-..
..-.
.-.-

Generation = 60, Population = 1.
1--.
-...
....
...-
-...
..-.
.-..
..-.
.-.-

*** Life<Cell> 4x9 ***

Generation = 0, Population = 4.
0-------0
---------
0-------0
---------

Generation = 10, Population = 6.
0-0---0-0
---------
--0---0--
---------

Generation = 20, Population = 6.
0-0---0-0
---------
--0---0--
---------

Generation = 30, Population = 6.
0-0---0-0
---------
--0---0--
---------

*** Life<Cell> 7x8 ***

Generation = 0, Population = 26.
0--00---
00--0--0
---00000
0000--00
-00000-0
----0-0-
--------

Generation = 10, Population = 23.
..1*.-*.
-*.*..11
.-.1...*
**.*0...
*...**.*
*....1-*
.-.-**-*

Generation = 20, Population = 12.
...**...
...**.-.
**.*.*..
**..-*..
....*...
........
.-......

Generation = 30, Population = 9.
........
.**...**
.**..*.*
......*.
........
........
.-......

Generation = 40, Population = 9.
........
.**...**
.**..*.*
......*.
........
........
.-......

Generation = 50, Population = 9.
........
.**...**
.**..*.*
......*.
........
........
.-......

Generation = 60, Population = 9.
........
.**...**
.**..*.*
......*.
........
........
.-......

Generation = 70, Population = 9.
........
.**...**
.**..*.*
......*.
........
........
.-......

Generation = 80, Population = 9.
........
.**...**
.**..*.*
......*.
........
........
.-......

*** Life<Cell> 9x5 ***

Generation = 0, Population = 13.
0---0
0---0
0---0
0---0
0---0
0----
0----
----0
-----

Generation = 10, Population = 21.
.-0*.
*0*1-
*.0.1
.-.*1
10-1*
....*
..-1.
.*...
1**-.

*** Life<Cell> 7x8 ***

Generation = 0, Population = 3.
0------0
--------
-------0
--------
--------
--------
--------

Generation = 10, Population = 7.
---11-0-
--------
-1-0--0-
--------
-0------
--------
--------

Generation = 20, Population = 28.
-*.*.**.
*0-.1*.*
*.*-..**
--.-0*--
-0..-.**
0-00--*0
-011--*1

Generation = 30, Population = 15.
-.......
.-.*....
.*..*...
*...*.1*
***.....
-1-..*.*
...*...1

Generation = 40, Population = 4.
-.......
........
........
.*......
........
*.**....
........

Generation = 50, Population = 0.
-.......
........
........
........
........
........
........

Generation = 60, Population = 0.
-.......
........
........
........
........
........
........

Generation = 70, Population = 0.
-.......
........
........
........
........
........
........

*** Life<Cell> 9x6 ***

Generation = 0, Population = 15.
-0--00
-0--0-
-0----
00---0
00----
-0----
-0--00
------
------

Generation = 10, Population = 25.
-**.--
**.1-*
-**...
0**1*.
-...*.
***1--
...1**
..1*-1
..-1..

*** Life<Cell> 7x5 ***

Generation = 0, Population = 2.
0---0
-----
-----
-----
-----
-----
-----

Generation = 10, Population = 2.
-----
-----
0---0
-----
-----
-----
-----

Generation = 20, Population = 6.
0---0
-----
0---0
-----
0---0
-----
-----

Generation = 30, Population = 6.
0---0
-----
0---0
-----
-----
-----
0---0

*** Life<Cell> 5x6 ***

Generation = 0, Population = 11.
0----0
00--00
0---00
----00
------

Generation = 10, Population = 9.
.-*--.
.1*..*
-*-.**
.-*.--
.-1-..

Generation = 20, Population = 14.
.**0*.
*..*.*
...*.*
*....-
.****.

Generation = 30, Population = 0.
......
......
......
.....-
......

Generation = 40, Population = 0.
......
......
......
.....-
......

Generation = 50, Population = 0.
......
......
......
.....-
......
