*** Life<ConwayCell> 5x4 ***

Generation = 0, Population = 8.
*.**
**.*
...*
*...
....

Generation = 10, Population = 8.
..**
.*.*
*..*
.**.
....

Generation = 20, Population = 8.
..**
.*.*
*..*
.**.
....

Generation = 30, Population = 8.
..**
.*.*
*..*
.**.
....

*** Life<ConwayCell> 6x7 ***

Generation = 0, Population = 15.
....*.*
..*.*.*
*.*.*.*
*.*.*..
*.*.*..
.......

Generation = 10, Population = 6.
....*..
...*.*.
...*.*.
....*..
.......
.......

*** Life<ConwayCell> 9x7 ***

Generation = 0, Population = 16.
*...*..
..*....
*.*.*.*
*...*..
..*...*
*...*..
....*..
..*.*..
.......

Generation = 10, Population = 5.
.......
.......
.......
.....*.
.....*.
...*...
.....*.
.....*.
.......

Generation = 20, Population = 3.
.......
.......
.......
.......
.......
...***.
.......
.......
.......

Generation = 30, Population = 3.
.......
.......
.......
.......
.......
...***.
.......
.......
.......

*** Life<ConwayCell> 9x7 ***

Generation = 0, Population = 25.
..*.*.*
..*.*.*
*.*...*
*.*.*.*
....*.*
*.*...*
*...*.*
*.*.*.*
.......

Generation = 10, Population = 4.
.......
.......
.......
....**.
....**.
.......
.......
.......
.......

Generation = 20, Population = 4.
.......
.......
.......
....**.
....**.
.......
.......
.......
.......

Generation = 30, Population = 4.
.......
.......
.......
....**.
....**.
.......
.......
.......
.......

Generation = 40, Population = 4.
.......
.......
.......
....**.
....**.
.......
.......
.......
.......

Generation = 50, Population = 4.
.......
.......
.......
....**.
....**.
.......
.......
.......
.......

Generation = 60, Population = 4.
.......
.......
.......
....**.
....**.
.......
.......
.......
.......

*** Life<ConwayCell> 6x7 ***

Generation = 0, Population = 2.
..*....
.......
.......
.......
......*
.......

Generation = 10, Population = 0.
.......
.......
.......
.......
.......
.......

*** Life<ConwayCell> 7x8 ***

Generation = 0, Population = 32.
.**.*.**
.*******
**.*.**.
..******
****.*..
*.*..**.
........

Generation = 10, Population = 0.
........
........
........
........
........
........
........

Generation = 20, Population = 0.
........
........
........
........
........
........
........

Generation = 30, Population = 0.
........
........
........
........
........
........
........

Generation = 40, Population = 0.
........
........
........
........
........
........
........

Generation = 50, Population = 0.
........
........
........
........
........
........
........

*** Life<ConwayCell> 6x9 ***

Generation = 0, Population = 10.
*.......*
*.......*
*.......*
*.......*
*.......*
.........

Generation = 10, Population = 0.
.........
.........
.........
.........
.........
.........

Generation = 20, Population = 0.
.........
.........
.........
.........
.........
.........

Generation = 30, Population = 0.
.........
.........
.........
.........
.........
.........

Generation = 40, Population = 0.
.........
.........
.........
.........
.........
.........

Generation = 50, Population = 0.
.........
.........
.........
.........
.........
.........

Generation = 60, Population = 0.
.........
.........
.........
.........
.........
.........

Generation = 70, Population = 0.
.........
.........
.........
.........
.........
.........

Generation = 80, Population = 0.
.........
.........
.........
.........
.........
.........

Generation = 90, Population = 0.
.........
.........
.........
.........
.........
.........

*** Life<ConwayCell> 5x4 ***

Generation = 0, Population = 8.
...*
*.**
**.*
.*..
....

Generation = 10, Population = 12.
..**
**.*
**.*
**.*
..*.

Generation = 20, Population = 0.
....
....
....
....
....

Generation = 30, Population = 0.
....
....
....
....
....

Generation = 40, Population = 0.
....
....
....
....
....

Generation = 50, Population = 0.
....
....
....
....
....

Generation = 60, Population = 0.
....
....
....
....
....

Generation = 70, Population = 0.
....
....
....
....
....

Generation = 80, Population = 0.
....
....
....
....
....

Generation = 90, Population = 0.
....
....
....
....
....

*** Life<ConwayCell> 7x4 ***

Generation = 0, Population = 19.
*.*.
****
..**
****
****
*.**
....

Generation = 10, Population = 0.
....
....
....
....
....
....
....

Generation = 20, Population = 0.
....
....
....
....
....
....
....

Generation = 30, Population = 0.
....
....
....
....
....
....
....

Generation = 40, Population = 0.
....
....
....
....
....
....
....

Generation = 50, Population = 0.
....
....
....
....
....
....
....

*** Life<ConwayCell> 5x9 ***

Generation = 0, Population = 8.
*.......*
*.......*
*.......*
*.......*
.........

Generation = 10, Population = 8.
.........
**.....**
**.....**
.........
.........

Generation = 20, Population = 8.
.........
**.....**
**.....**
.........
.........

Generation = 30, Population = 8.
.........
**.....**
**.....**
.........
.........

Generation = 40, Population = 8.
.........
**.....**
**.....**
.........
.........

Generation = 50, Population = 8.
.........
**.....**
**.....**
.........
.........

Generation = 60, Population = 8.
.........
**.....**
**.....**
.........
.........

Generation = 70, Population = 8.
.........
**.....**
**.....**
.........
.........

Generation = 80, Population = 8.
.........
**.....**
**.....**
.........
.........

*** Life<ConwayCell> 8x7 ***

Generation = 0, Population = 22.
*.*.*.*
*.*.*..
*.*.*.*
*.*.*..
*.*....
*.*.*.*
....*.*
.......

Generation = 10, Population = 0.
.......
.......
.......
.......
.......
.......
.......
.......

*** Life<ConwayCell> 5x6 ***

Generation = 0, Population = 7.
....**
*...**
......
**....
......

Generation = 10, Population = 4.
....**
....**
......
......
......

Generation = 20, Population = 4.
....**
....**
......
......
......

Generation = 30, Population = 4.
....**
....**
......
......
......

Generation = 40, Population = 4.
....**
....**
......
......
......

Generation = 50, Population = 4.
....**
....**
......
......
......

Generation = 60, Population = 4.
....**
....**
......
......
......

*** Life<ConwayCell> 7x7 ***

Generation = 0, Population = 7.
....*..
......*
*......
..*....
*.....*
..*....
.......

Generation = 10, Population = 0.
.......
.......
.......
.......
.......
.......
.......

*** Life<ConwayCell> 7x6 ***

Generation = 0, Population = 15.
....**
.*..*.
*...*.
**..*.
**...*
.*..**
......

Generation = 10, Population = 0.
......
......
......
......
......
......
......

Generation = 20, Population = 0.
......
......
......
......
......
......
......

Generation = 30, Population = 0.
......
......
......
......
......
......
......

Generation = 40, Population = 0.
......
......
......
......
......
......
......

Generation = 50, Population = 0.
......
......
......
......
......
......
......

Generation = 60, Population = 0.
......
......
......
......
......
......
......

Generation = 70, Population = 0.
......
......
......
......
......
......
......

Generation = 80, Population = 0.
......
......
......
......
......
......
......

Generation = 90, Population = 0.
......
......
......
......
......
......
......

*** Life<ConwayCell> 5x5 ***

Generation = 0, Population = 8.
*...*
*...*
*...*
*...*
.....

Generation = 10, Population = 8.
.....
**.**
**.**
.....
.....

Generation = 20, Population = 8.
.....
**.**
**.**
.....
.....

Generation = 30, Population = 8.
.....
**.**
**.**
.....
.....

*** Life<ConwayCell> 7x6 ***

Generation = 0, Population = 14.
**...*
*....*
**..*.
**...*
.*..**
......
......

Generation = 10, Population = 9.
..***.
.*...*
.**.**
......
......
......
......

Generation = 20, Population = 9.
..***.
.*...*
.**.**
......
......
......
......

Generation = 30, Population = 9.
..***.
.*...*
.**.**
......
......
......
......

Generation = 40, Population = 9.
..***.
.*...*
.**.**
......
......
......
......

Generation = 50, Population = 9.
..***.
.*...*
.**.**
......
......
......
......

Generation = 60, Population = 9.
..***.
.*...*
.**.**
......
......
......
......

Generation = 70, Population = 9.
..***.
.*...*
.**.**
......
......
......
......

Generation = 80, Population = 9.
..***.
.*...*
.**.**
......
......
......
......

*** Life<ConwayCell> 5x7 ***

Generation = 0, Population = 14.
*...*.*
*.*.*..
*.*.*.*
*.*.*.*
.......

Generation = 10, Population = 4.
.......
.......
.**....
..*....
...*...

Generation = 20, Population = 0.
.......
.......
.......
.......
.......

*** Life<ConwayCell> 4x9 ***

Generation = 0, Population = 3.
.........
*........
*.......*
.........

Generation = 10, Population = 0.
.........
.........
.........
.........

Generation = 20, Population = 0.
.........
.........
.........
.........

Generation = 30, Population = 0.
.........
.........
.........
.........

Generation = 40, Population = 0.
.........
.........
.........
.........

Generation = 50, Population = 0.
.........
.........
.........
.........

Generation = 60, Population = 0.
.........
.........
.........
.........

Generation = 70, Population = 0.
.........
.........
.........
.........

Generation = 80, Population = 0.
.........
.........
.........
.........

Generation = 90, Population = 0.
.........
.........
.........
.........

*** Life<ConwayCell> 4x7 ***

Generation = 0, Population = 8.
*.*.*..
..*.*..
..*.*.*
.......

*** Life<ConwayCell> 9x6 ***

Generation = 0, Population = 20.
**...*
*...*.
.*...*
**....
**..*.
**...*
.*..**
....**
......

Generation = 10, Population = 2.
......
.**...
......
......
......
......
......
......
......

Generation = 20, Population = 0.
......
......
......
......
......
......
......
......
......

Generation = 30, Population = 0.
......
......
......
......
......
......
......
......
......
