*** Life<ConwayCell> 8x50 ***

Generation = 0, Population = 2.
..................................................
..................................................
..................................................
.*................................................
..................................................
..................................................
..................................................
.............*....................................

Generation = 2, Population = 0.
..................................................
..................................................
..................................................
..................................................
..................................................
..................................................
..................................................
..................................................

Generation = 4, Population = 0.
..................................................
..................................................
..................................................
..................................................
..................................................
..................................................
..................................................
..................................................

Generation = 6, Population = 0.
..................................................
..................................................
..................................................
..................................................
..................................................
..................................................
..................................................
..................................................

*** Life<ConwayCell> 8x20 ***

Generation = 0, Population = 4.
....................
.*...............*..
....................
....................
....................
....................
....*.....*.........
....................

Generation = 2, Population = 0.
....................
....................
....................
....................
....................
....................
....................
....................

Generation = 4, Population = 0.
....................
....................
....................
....................
....................
....................
....................
....................

Generation = 6, Population = 0.
....................
....................
....................
....................
....................
....................
....................
....................

Generation = 8, Population = 0.
....................
....................
....................
....................
....................
....................
....................
....................

Generation = 10, Population = 0.
....................
....................
....................
....................
....................
....................
....................
....................

Generation = 12, Population = 0.
....................
....................
....................
....................
....................
....................
....................
....................

Generation = 14, Population = 0.
....................
....................
....................
....................
....................
....................
....................
....................

Generation = 16, Population = 0.
....................
....................
....................
....................
....................
....................
....................
....................

Generation = 18, Population = 0.
....................
....................
....................
....................
....................
....................
....................
....................

*** Life<ConwayCell> 7x12 ***

Generation = 0, Population = 8.
.*..........
........*...
....*...*...
...*........
*..........*
............
........*...

Generation = 1, Population = 0.
............
............
............
............
............
............
............

*** Life<ConwayCell> 6x11 ***

Generation = 0, Population = 4.
...........
.*.....*...
...*.......
...........
..*........
...........

Generation = 1, Population = 0.
...........
...........
...........
...........
...........
...........

Generation = 2, Population = 0.
...........
...........
...........
...........
...........
...........

Generation = 3, Population = 0.
...........
...........
...........
...........
...........
...........

Generation = 4, Population = 0.
...........
...........
...........
...........
...........
...........

Generation = 5, Population = 0.
...........
...........
...........
...........
...........
...........

Generation = 6, Population = 0.
...........
...........
...........
...........
...........
...........

Generation = 7, Population = 0.
...........
...........
...........
...........
...........
...........

Generation = 8, Population = 0.
...........
...........
...........
...........
...........
...........

Generation = 9, Population = 0.
...........
...........
...........
...........
...........
...........

Generation = 10, Population = 0.
...........
...........
...........
...........
...........
...........

Generation = 11, Population = 0.
...........
...........
...........
...........
...........
...........

Generation = 12, Population = 0.
...........
...........
...........
...........
...........
...........

Generation = 13, Population = 0.
...........
...........
...........
...........
...........
...........

Generation = 14, Population = 0.
...........
...........
...........
...........
...........
...........

Generation = 15, Population = 0.
...........
...........
...........
...........
...........
...........

Generation = 16, Population = 0.
...........
...........
...........
...........
...........
...........

Generation = 17, Population = 0.
...........
...........
...........
...........
...........
...........

Generation = 18, Population = 0.
...........
...........
...........
...........
...........
...........

Generation = 19, Population = 0.
...........
...........
...........
...........
...........
...........

Generation = 20, Population = 0.
...........
...........
...........
...........
...........
...........

Generation = 21, Population = 0.
...........
...........
...........
...........
...........
...........

Generation = 22, Population = 0.
...........
...........
...........
...........
...........
...........

Generation = 23, Population = 0.
...........
...........
...........
...........
...........
...........

Generation = 24, Population = 0.
...........
...........
...........
...........
...........
...........

Generation = 25, Population = 0.
...........
...........
...........
...........
...........
...........

*** Life<ConwayCell> 8x24 ***

Generation = 0, Population = 8.
........................
......................*.
....*...................
........................
...*.*..................
..*.*...................
..........*.............
...*....................

Generation = 2, Population = 6.
........................
........................
........................
...**...................
.....*..................
..*.....................
...**...................
........................

Generation = 4, Population = 6.
........................
........................
........................
...**...................
.....*..................
..*.....................
...**...................
........................

Generation = 6, Population = 6.
........................
........................
........................
...**...................
.....*..................
..*.....................
...**...................
........................

Generation = 8, Population = 6.
........................
........................
........................
...**...................
.....*..................
..*.....................
...**...................
........................

Generation = 10, Population = 6.
........................
........................
........................
...**...................
.....*..................
..*.....................
...**...................
........................

Generation = 12, Population = 6.
........................
........................
........................
...**...................
.....*..................
..*.....................
...**...................
........................

Generation = 14, Population = 6.
........................
........................
........................
...**...................
.....*..................
..*.....................
...**...................
........................

Generation = 16, Population = 6.
........................
........................
........................
...**...................
.....*..................
..*.....................
...**...................
........................

Generation = 18, Population = 6.
........................
........................
........................
...**...................
.....*..................
..*.....................
...**...................
........................

Generation = 20, Population = 6.
........................
........................
........................
...**...................
.....*..................
..*.....................
...**...................
........................

Generation = 22, Population = 6.
........................
........................
........................
...**...................
.....*..................
..*.....................
...**...................
........................

*** Life<ConwayCell> 3x11 ***

Generation = 0, Population = 8.
....*.***.*
....**.....
.........*.

Generation = 1, Population = 9.
....*.**...
....******.
...........

Generation = 2, Population = 7.
....*......
....*...*..
.....****..

Generation = 3, Population = 7.
...........
....*.*.*..
.....****..

Generation = 4, Population = 5.
...........
......*.*..
.....**.*..

Generation = 5, Population = 4.
...........
.....**....
.....**....

Generation = 6, Population = 4.
...........
.....**....
.....**....

Generation = 7, Population = 4.
...........
.....**....
.....**....

*** Life<ConwayCell> 3x17 ***

Generation = 0, Population = 7.
...*........*....
..**....*.....*..
............*....

Generation = 2, Population = 4.
..**.............
..**.............
.................

Generation = 4, Population = 4.
..**.............
..**.............
.................

*** Life<ConwayCell> 4x36 ***

Generation = 0, Population = 4.
....................................
.................*..................
................................*...
...........*...............*........

Generation = 1, Population = 0.
....................................
....................................
....................................
....................................

Generation = 2, Population = 0.
....................................
....................................
....................................
....................................

Generation = 3, Population = 0.
....................................
....................................
....................................
....................................

Generation = 4, Population = 0.
....................................
....................................
....................................
....................................

Generation = 5, Population = 0.
....................................
....................................
....................................
....................................

Generation = 6, Population = 0.
....................................
....................................
....................................
....................................

Generation = 7, Population = 0.
....................................
....................................
....................................
....................................

Generation = 8, Population = 0.
....................................
....................................
....................................
....................................

Generation = 9, Population = 0.
....................................
....................................
....................................
....................................

Generation = 10, Population = 0.
....................................
....................................
....................................
....................................

Generation = 11, Population = 0.
....................................
....................................
....................................
....................................

Generation = 12, Population = 0.
....................................
....................................
....................................
....................................

Generation = 13, Population = 0.
....................................
....................................
....................................
....................................

Generation = 14, Population = 0.
....................................
....................................
....................................
....................................

Generation = 15, Population = 0.
....................................
....................................
....................................
....................................

Generation = 16, Population = 0.
....................................
....................................
....................................
....................................

Generation = 17, Population = 0.
....................................
....................................
....................................
....................................

*** Life<ConwayCell> 1x26 ***

Generation = 0, Population = 6.
....*...**....*.*......*..

Generation = 2, Population = 0.
..........................

Generation = 4, Population = 0.
..........................

Generation = 6, Population = 0.
..........................

Generation = 8, Population = 0.
..........................

Generation = 10, Population = 0.
..........................

Generation = 12, Population = 0.
..........................

*** Life<ConwayCell> 3x8 ***

Generation = 0, Population = 2.
....*...
...*....
........

Generation = 1, Population = 0.
........
........
........

Generation = 2, Population = 0.
........
........
........

Generation = 3, Population = 0.
........
........
........

Generation = 4, Population = 0.
........
........
........

Generation = 5, Population = 0.
........
........
........

Generation = 6, Population = 0.
........
........
........

Generation = 7, Population = 0.
........
........
........

Generation = 8, Population = 0.
........
........
........

Generation = 9, Population = 0.
........
........
........

Generation = 10, Population = 0.
........
........
........

Generation = 11, Population = 0.
........
........
........

Generation = 12, Population = 0.
........
........
........

Generation = 13, Population = 0.
........
........
........

Generation = 14, Population = 0.
........
........
........

Generation = 15, Population = 0.
........
........
........

*** Life<ConwayCell> 4x17 ***

Generation = 0, Population = 3.
........*........
.*...............
...*.............
.................

Generation = 1, Population = 0.
.................
.................
.................
.................

Generation = 2, Population = 0.
.................
.................
.................
.................

Generation = 3, Population = 0.
.................
.................
.................
.................

Generation = 4, Population = 0.
.................
.................
.................
.................

Generation = 5, Population = 0.
.................
.................
.................
.................

Generation = 6, Population = 0.
.................
.................
.................
.................

Generation = 7, Population = 0.
.................
.................
.................
.................

Generation = 8, Population = 0.
.................
.................
.................
.................

Generation = 9, Population = 0.
.................
.................
.................
.................

Generation = 10, Population = 0.
.................
.................
.................
.................

Generation = 11, Population = 0.
.................
.................
.................
.................

Generation = 12, Population = 0.
.................
.................
.................
.................

Generation = 13, Population = 0.
.................
.................
.................
.................

Generation = 14, Population = 0.
.................
.................
.................
.................

Generation = 15, Population = 0.
.................
.................
.................
.................

Generation = 16, Population = 0.
.................
.................
.................
.................

Generation = 17, Population = 0.
.................
.................
.................
.................

Generation = 18, Population = 0.
.................
.................
.................
.................

Generation = 19, Population = 0.
.................
.................
.................
.................

Generation = 20, Population = 0.
.................
.................
.................
.................

Generation = 21, Population = 0.
.................
.................
.................
.................

*** Life<ConwayCell> 5x45 ***

Generation = 0, Population = 9.
............................................*
............................*................
............*.....*....*.....................
.*...........................................
..................*.....................*.*..

Generation = 2, Population = 0.
.............................................
.............................................
.............................................
.............................................
.............................................

Generation = 4, Population = 0.
.............................................
.............................................
.............................................
.............................................
.............................................

Generation = 6, Population = 0.
.............................................
.............................................
.............................................
.............................................
.............................................

Generation = 8, Population = 0.
.............................................
.............................................
.............................................
.............................................
.............................................

*** Life<ConwayCell> 3x46 ***

Generation = 0, Population = 6.
...**......*..................................
...*..........................................
......................*.*.....................

Generation = 1, Population = 4.
...**.........................................
...**.........................................
..............................................

Generation = 2, Population = 4.
...**.........................................
...**.........................................
..............................................

Generation = 3, Population = 4.
...**.........................................
...**.........................................
..............................................

Generation = 4, Population = 4.
...**.........................................
...**.........................................
..............................................

Generation = 5, Population = 4.
...**.........................................
...**.........................................
..............................................

Generation = 6, Population = 4.
...**.........................................
...**.........................................
..............................................

Generation = 7, Population = 4.
...**.........................................
...**.........................................
..............................................

Generation = 8, Population = 4.
...**.........................................
...**.........................................
..............................................

Generation = 9, Population = 4.
...**.........................................
...**.........................................
..............................................

Generation = 10, Population = 4.
...**.........................................
...**.........................................
..............................................

Generation = 11, Population = 4.
...**.........................................
...**.........................................
..............................................

Generation = 12, Population = 4.
...**.........................................
...**.........................................
..............................................

Generation = 13, Population = 4.
...**.........................................
...**.........................................
..............................................

Generation = 14, Population = 4.
...**.........................................
...**.........................................
..............................................

Generation = 15, Population = 4.
...**.........................................
...**.........................................
..............................................

Generation = 16, Population = 4.
...**.........................................
...**.........................................
..............................................

Generation = 17, Population = 4.
...**.........................................
...**.........................................
..............................................

Generation = 18, Population = 4.
...**.........................................
...**.........................................
..............................................

Generation = 19, Population = 4.
...**.........................................
...**.........................................
..............................................

Generation = 20, Population = 4.
...**.........................................
...**.........................................
..............................................

*** Life<ConwayCell> 3x34 ***

Generation = 0, Population = 6.
.........*........................
...*.............................*
....*..*.................*........

Generation = 2, Population = 0.
..................................
..................................
..................................

Generation = 4, Population = 0.
..................................
..................................
..................................

Generation = 6, Population = 0.
..................................
..................................
..................................

Generation = 8, Population = 0.
..................................
..................................
..................................

Generation = 10, Population = 0.
..................................
..................................
..................................

Generation = 12, Population = 0.
..................................
..................................
..................................

Generation = 14, Population = 0.
..................................
..................................
..................................

Generation = 16, Population = 0.
..................................
..................................
..................................

Generation = 18, Population = 0.
..................................
..................................
..................................

Generation = 20, Population = 0.
..................................
..................................
..................................

Generation = 22, Population = 0.
..................................
..................................
..................................

Generation = 24, Population = 0.
..................................
..................................
..................................

*** Life<ConwayCell> 6x21 ***

Generation = 0, Population = 3.
.....................
...............*...*.
.....................
.....................
...................*.
.....................

Generation = 2, Population = 0.
.....................
.....................
.....................
.....................
.....................
.....................

Generation = 4, Population = 0.
.....................
.....................
.....................
.....................
.....................
.....................

*** Life<ConwayCell> 1x20 ***

Generation = 0, Population = 4.
*.*.*......*........

Generation = 1, Population = 0.
....................

Generation = 2, Population = 0.
....................

Generation = 3, Population = 0.
....................

Generation = 4, Population = 0.
....................

Generation = 5, Population = 0.
....................

Generation = 6, Population = 0.
....................

Generation = 7, Population = 0.
....................

Generation = 8, Population = 0.
....................

Generation = 9, Population = 0.
....................

Generation = 10, Population = 0.
....................

Generation = 11, Population = 0.
....................

Generation = 12, Population = 0.
....................

Generation = 13, Population = 0.
....................

Generation = 14, Population = 0.
....................

Generation = 15, Population = 0.
....................

Generation = 16, Population = 0.
....................

Generation = 17, Population = 0.
....................

Generation = 18, Population = 0.
....................

*** Life<ConwayCell> 4x18 ***

Generation = 0, Population = 3.
.........*........
................*.
...*..............
..................

Generation = 2, Population = 0.
..................
..................
..................
..................

Generation = 4, Population = 0.
..................
..................
..................
..................

Generation = 6, Population = 0.
..................
..................
..................
..................

Generation = 8, Population = 0.
..................
..................
..................
..................

Generation = 10, Population = 0.
..................
..................
..................
..................

Generation = 12, Population = 0.
..................
..................
..................
..................

*** Life<ConwayCell> 2x36 ***

Generation = 0, Population = 10.
.....*...****.*......*..............
.............*....**................

Generation = 2, Population = 4.
..........*..*......................
..........*..*......................

Generation = 4, Population = 0.
....................................
....................................

Generation = 6, Population = 0.
....................................
....................................

Generation = 8, Population = 0.
....................................
....................................

Generation = 10, Population = 0.
....................................
....................................

Generation = 12, Population = 0.
....................................
....................................

Generation = 14, Population = 0.
....................................
....................................

Generation = 16, Population = 0.
....................................
....................................

*** Life<ConwayCell> 8x25 ***

Generation = 0, Population = 7.
................*........
.........................
.......*.................
.........................
...............*.*.......
......**.................
.........................
....*....................

Generation = 2, Population = 0.
.........................
.........................
.........................
.........................
.........................
.........................
.........................
.........................

*** Life<ConwayCell> 1x44 ***

Generation = 0, Population = 3.
...........*.....*.........*................

Generation = 1, Population = 0.
............................................

Generation = 2, Population = 0.
............................................

Generation = 3, Population = 0.
............................................

Generation = 4, Population = 0.
............................................

Generation = 5, Population = 0.
............................................
