20

8 50
2
7 13
3 1
6 2

8 20
4
1 1
6 10
1 17
6 4
19 2

7 12
8
2 4
2 8
6 8
4 0
3 3
1 8
0 1
4 11
1 1

6 11
4
1 7
4 2
2 3
1 1
25 1

8 24
8
2 4
6 10
4 5
5 2
5 4
1 22
4 3
7 3
23 2

3 11
9
1 4
0 7
2 9
1 4
0 8
0 10
0 4
1 5
0 6
7 1

3 17
9
1 14
1 2
1 3
1 8
1 2
2 12
0 3
0 12
2 12
5 2

4 36
4
2 32
3 27
3 11
1 17
17 1

1 26
6
0 14
0 23
0 16
0 9
0 8
0 4
13 2

3 8
2
1 3
0 4
15 1

4 17
3
1 1
0 8
2 3
21 1

5 45
9
4 40
4 18
3 1
2 12
4 42
0 44
1 28
2 23
2 18
8 2

3 46
6
2 24
0 3
0 4
0 11
2 22
1 3
20 1

3 34
6
1 3
2 7
0 9
1 33
2 25
2 4
25 2

6 21
3
4 19
1 15
1 19
5 2

1 20
4
0 0
0 2
0 4
0 11
18 1

4 18
3
1 16
0 9
2 3
12 2

2 36
10
0 21
1 18
1 19
0 12
0 11
0 5
0 14
0 9
0 10
1 13
16 2

8 25
7
2 7
5 7
4 15
4 17
0 16
5 6
7 4
2 2

1 44
3
0 27
0 17
0 11
5 1
