25

45 34
12
10 29
32 25
3 13
38 23
41 18
40 6
43 20
26 24
17 27
21 29
10 13
26 31
10 2

44 27
23
18 10
8 20
11 11
39 3
21 5
41 3
6 5
3 14
16 25
0 17
29 6
24 3
14 8
12 3
11 23
27 25
40 17
21 20
33 3
29 19
32 0
4 6
43 13
14 5

36 48
14
35 12
1 18
22 45
14 31
11 32
10 13
19 46
8 6
1 38
4 36
27 33
14 35
18 14
14 21
9 7

49 38
20
4 6
1 15
17 30
47 5
28 26
26 34
9 8
20 17
9 15
42 12
14 36
23 14
37 13
28 15
9 27
14 18
0 29
47 13
4 19
34 27
8 4

47 34
14
16 26
14 11
24 29
21 23
44 14
0 3
13 31
32 9
2 0
2 9
40 3
37 32
15 13
6 13
14 12

39 49
22
12 20
6 28
13 31
20 11
24 1
4 29
20 28
7 36
12 40
6 13
31 1
25 11
19 26
16 45
29 30
3 16
2 30
1 34
27 41
6 28
18 1
22 27
9 1

38 33
10
34 10
31 20
27 15
15 16
6 4
4 23
10 26
37 20
11 27
10 16
8 3

30 43
18
26 5
13 18
29 13
28 29
0 28
14 0
20 12
9 37
8 0
10 36
6 28
8 13
23 40
5 31
7 11
27 30
2 5
12 6
12 2

33 45
10
6 35
16 6
11 29
22 23
13 28
24 17
17 15
19 14
10 42
9 8
14 9

47 43
10
29 39
31 16
12 21
23 21
16 16
21 13
20 36
39 36
13 32
8 5
14 8

44 46
16
29 37
23 28
29 24
0 36
43 28
18 45
28 37
25 28
28 39
26 11
5 8
0 11
8 14
17 22
42 23
43 7
5 2

35 48
18
26 28
22 38
3 5
2 16
33 32
15 18
27 37
19 33
19 15
5 7
0 0
11 35
4 44
2 5
10 21
21 42
13 41
9 15
9 2

49 39
18
10 16
40 0
16 14
8 33
33 14
10 32
0 18
11 12
42 11
17 32
17 14
20 24
7 7
19 7
33 38
42 31
48 29
36 34
8 6

29 37
15
7 1
3 30
28 21
12 15
7 35
2 2
5 27
14 22
2 12
13 2
19 4
18 7
8 17
10 13
9 6
9 6

50 27
17
45 18
24 12
42 2
12 8
24 2
0 15
45 17
20 11
39 18
12 13
32 25
35 20
0 21
25 19
11 14
37 2
9 23
15 4

48 45
16
4 21
45 33
24 37
45 8
11 24
39 22
39 10
35 39
1 2
41 3
18 16
32 35
25 2
11 32
21 15
39 25
15 4

49 31
20
4 23
15 30
2 23
8 4
13 19
46 19
32 28
2 19
35 3
39 21
26 9
42 28
31 16
40 19
17 29
21 22
30 27
9 11
32 28
40 28
8 2

35 29
14
23 12
32 18
32 7
16 22
21 0
30 24
15 26
18 2
29 3
5 25
17 4
20 15
27 15
27 11
15 8

48 49
13
12 0
10 22
30 21
18 10
5 8
8 36
22 39
35 26
33 34
44 14
19 47
29 31
23 6
9 1

37 34
20
11 6
6 4
14 19
30 28
33 32
10 29
0 32
3 32
3 9
4 25
10 29
31 6
32 0
14 2
32 4
3 33
5 3
5 28
31 11
12 21
8 2

33 43
11
16 3
16 15
7 14
31 29
21 4
27 36
31 28
10 28
26 20
18 12
22 10
8 3

43 48
12
7 22
5 21
10 24
2 43
38 15
35 25
9 44
10 34
27 10
24 30
6 24
30 36
9 3

30 38
24
19 27
21 3
2 19
23 10
2 32
14 14
17 16
25 17
19 34
22 31
13 14
25 9
27 18
5 26
22 3
2 3
5 14
12 10
25 12
7 36
27 20
14 2
8 29
9 33
9 3

26 43
14
7 23
19 26
19 10
4 32
19 12
18 27
11 11
6 6
21 23
13 5
18 12
3 32
3 33
11 29
14 2

29 25
19
22 3
9 21
4 13
22 19
6 19
1 11
1 9
22 19
16 7
25 16
7 19
27 8
1 23
12 5
22 17
2 20
3 22
10 11
13 9
7 2
