28

11 11
27
6 8
6 3
10 6
10 8
10 1
9 7
2 4
5 2
9 7
6 1
2 1
9 2
5 6
4 1
0 4
10 9
5 5
3 9
4 6
9 3
2 0
10 5
1 4
9 8
10 8
5 10
4 7
20 2

9 3
11
5 2
4 1
7 1
5 1
6 0
0 0
3 1
8 2
3 2
0 1
7 2
10 1

12 6
28
3 2
9 3
3 5
5 2
10 0
11 1
8 3
10 3
4 5
0 5
6 4
2 0
4 3
1 1
0 2
11 1
9 1
1 4
5 2
8 4
3 2
9 3
0 3
9 2
2 2
6 0
1 2
9 3
4 1

3 9
3
2 6
2 8
2 1
6 5

7 5
12
5 1
6 4
3 2
0 4
0 4
5 3
0 0
2 4
6 1
5 0
0 0
4 1
15 13

11 12
6
6 11
3 6
3 1
10 1
0 5
10 1
17 7

8 3
11
5 1
1 0
1 0
1 0
2 0
2 1
2 0
6 2
4 2
1 1
3 2
10 9

3 4
6
1 2
0 0
0 2
0 2
0 0
2 3
17 7

10 9
25
0 8
0 4
3 3
7 2
0 8
7 7
6 5
2 7
4 6
3 5
0 4
7 3
1 6
7 6
5 6
3 7
2 1
5 4
9 7
6 8
1 6
2 0
5 0
4 0
7 1
3 2

8 11
43
6 3
7 10
4 7
4 4
5 6
0 10
2 2
3 4
3 8
6 1
4 3
4 3
1 9
2 8
1 5
4 9
3 7
7 6
2 10
0 4
2 1
1 3
4 7
5 6
0 0
3 1
1 10
5 9
7 7
7 5
3 7
0 9
5 0
6 3
4 6
0 1
5 10
3 9
0 6
1 9
7 10
5 0
0 2
6 5

4 6
5
2 1
3 3
0 2
2 1
2 2
15 10

12 10
10
2 6
9 5
11 9
8 5
6 1
1 5
9 8
11 9
1 7
4 1
18 7

4 12
9
2 0
1 10
0 9
1 6
0 3
2 5
3 0
0 5
3 8
11 1

9 12
29
4 9
1 11
2 2
0 1
8 2
3 9
8 0
6 7
1 10
4 1
5 4
1 2
6 2
3 5
2 8
0 10
8 8
1 3
4 11
7 7
5 4
2 6
2 7
6 0
7 9
8 6
4 1
3 6
3 5
20 7

11 8
21
4 1
4 5
7 7
3 2
9 5
8 7
9 1
2 7
0 5
8 7
10 7
0 0
8 7
0 3
6 2
10 1
7 0
0 3
1 7
1 1
1 4
20 16

12 7
23
9 2
10 2
2 2
4 2
7 0
2 6
0 1
10 4
7 0
8 3
3 3
3 3
0 3
6 3
10 1
11 6
8 5
2 3
9 5
4 2
5 5
4 1
2 2
14 13

11 7
14
6 4
1 3
7 1
0 5
6 2
9 6
3 4
8 3
1 0
8 1
1 5
5 4
5 4
8 2
9 5

4 12
17
1 8
0 11
3 6
1 11
3 10
1 7
0 5
1 8
2 8
2 3
3 7
2 9
3 10
2 3
2 2
0 3
1 9
14 12

11 9
33
10 0
7 5
9 8
6 0
4 3
10 8
2 8
6 1
7 5
8 6
3 1
10 1
0 1
3 1
1 3
0 6
4 0
5 8
5 5
3 3
8 4
10 6
8 8
10 4
4 6
8 1
10 6
6 7
4 3
7 1
2 2
5 8
4 3
14 6

9 9
38
5 5
7 3
7 0
6 8
0 3
2 7
8 1
8 2
3 8
3 6
1 2
2 2
8 0
6 5
6 7
4 2
5 5
7 1
7 5
6 0
1 4
3 6
2 3
2 1
1 2
8 1
6 1
7 2
6 0
3 7
8 0
1 5
8 6
1 8
1 5
4 7
2 5
4 3
13 2

5 5
5
4 1
2 2
3 0
2 2
3 1
5 1

7 5
10
0 3
4 2
5 1
5 4
4 2
6 2
0 3
3 2
2 0
0 1
20 3

5 4
6
3 2
0 3
1 2
1 2
1 1
2 1
7 1

10 3
11
4 2
3 1
0 2
0 2
7 1
1 0
4 2
5 0
7 2
1 0
4 1
5 3

7 9
17
2 4
1 6
2 7
4 1
6 3
5 0
4 5
2 5
4 0
4 2
1 3
3 8
5 4
5 4
0 2
5 5
4 3
17 3

4 8
6
2 6
0 4
3 5
1 4
1 1
0 1
17 13

7 4
12
3 0
6 2
5 1
4 2
0 3
6 2
6 1
3 0
4 2
6 1
0 0
5 0
16 8

4 10
6
1 0
3 6
3 4
3 6
0 3
2 1
17 12
