*** Life<Cell> 9x17 ***

Generation = 0, Population = 15.
-----------------
-------0---00----
-----------------
--0-0------------
---------0-------
------0------0--0
--------00--00---
--------0----0---
-----------------

*** Life<Cell> 10x2 ***

Generation = 0, Population = 7.
--
-0
-0
-0
-0
-0
--
-0
-0
--

*** Life<Cell> 14x11 ***

Generation = 0, Population = 11.
-----------
-----00----
--------0--
------0----
-0------0--
-----------
----------0
-----------
-----------
-----------
-----------
----------0
----------0
---------00

Generation = 5, Population = 64.
01---0*--00
0-*1.1**.**
-0-0--1--0-
---0-11--0*
0--01----01
-0----*0--0
-------0--0
-0---010001
0-0---00-0*
-0-------*1
------0-0-*
-----01-1.*
--------1-*
----01-1.*1

*** Life<Cell> 20x5 ***

Generation = 0, Population = 15.
-----
----0
--0--
-000-
-----
--0--
-0---
-0---
----0
----0
----0
-0---
-----
----0
-----
-----
--0--
--0--
-----
-----

Generation = 6, Population = 46.
---1-
--0.-
*0.0.
-*..0
-**--
010.0
--1*.
0.1*-
-.*--
0--10
0-.-*
--0-0
-111.
1*-1.
1-0-*
-1*-1
.-1--
*-1--
-0*00
--.-0

*** Life<Cell> 9x8 ***

Generation = 0, Population = 5.
--------
--------
----0-0-
-----0--
--------
--0-----
-0------
--------
--------

*** Life<Cell> 17x3 ***

Generation = 0, Population = 15.
---
--0
--0
-0-
--0
-00
-00
-0-
-0-
---
-00
---
-0-
-0-
---
---
-0-

*** Life<Cell> 12x9 ***

Generation = 0, Population = 12.
---------
-----00--
---------
--0------
------00-
-0--0----
----0----
-0--0----
---------
----0----
--0------
---------

Generation = 5, Population = 45.
--0----*-
-0.0.*-1.
0-00*---0
..0-*---0
--1*-*1.-
-10*.0-0-
--*0-000-
-.-.1---1
--0-1-110
-*-010---
1---*--00
----1-0--

*** Life<Cell> 11x13 ***

Generation = 0, Population = 15.
-------------
-------------
---00-----0--
-------------
---0---------
-0---0------0
-00---0------
-----------0-
------0-----0
------0------
----------0--

Generation = 6, Population = 59.
010-.000--0--
-*-*01-1--11.
*0-.*-**-10-*
---*----1-1-*
--.--*.--1---
-*--01.1--0*1
*-10-*.-1-*--
0.-0-*--00--1
--.*--.-*---*
11*--.----*0-
10----*---1--

*** Life<Cell> 13x5 ***

Generation = 0, Population = 13.
-----
---00
-----
-0---
---0-
---00
-----
---0-
-----
----0
--0--
---00
--0-0

*** Life<Cell> 15x17 ***

Generation = 0, Population = 18.
-----------------
--------0-----0--
-----------------
-----0-------0---
-----------------
----------0------
----------0------
------0----------
--0-----0-----0--
----------------0
-----------0-0---
------0----------
---0-------------
-----------------
----0------00----

Generation = 4, Population = 60.
-----------------
----1---0---*.1-0
----------0------
-0----1-------.--
--0-----0-.---1--
------*-0-------0
------1----1-10--
--1--11---1--1---
0--1*-1---0-0.--1
----------0-1-.--
----0--1-*000-.*-
--1---0---0------
--1-1--01--1*-1--
-----------10---0
0--1---1--1**--10

*** Life<Cell> 20x2 ***

Generation = 0, Population = 6.
--
-0
-0
-0
--
--
-0
--
--
--
--
--
--
--
--
-0
--
--
-0
--

Generation = 5, Population = 21.
0-
-1
-0
0.
-0
-.
-1
0-
-0
-0
01
01
-0
-0
01
0.
-1
--
-1
0-

*** Life<Cell> 5x12 ***

Generation = 0, Population = 12.
------------
-0-0----0---
--0----00---
-0-0-----0--
-00----0----

*** Life<Cell> 14x2 ***

Generation = 0, Population = 8.
--
--
-0
--
-0
--
-0
--
-0
--
-0
-0
-0
-0

*** Life<Cell> 13x19 ***

Generation = 0, Population = 11.
-------------------
----0--------------
------------------0
----0------------0-
-------------------
----------00-------
-------------------
-----0-------------
-------------------
---------0---------
-------------0-----
--0----------------
-------------0-----

Generation = 10, Population = 97.
--------0-1-00-----
0---0-00-.*-.----0-
-----------1.--0--0
---101---011-*-1--0
--1---10--11-.--1-*
-*-......*.1.-.-.**
1-*-0-10-0--*.-.--1
1-.0-*--0*1*101--00
1-*-11-01*0--11--*1
-.01*--11-...**-1.-
--10-*--1**.1.--1.*
-01.0.-*10.----0-1-
---0---1--0*---0--1

*** Life<Cell> 17x11 ***

Generation = 0, Population = 12.
-----------
--------0--
-----------
----0------
--0--------
----------0
-----------
-----------
-----------
----------0
---00------
-----------
--------0--
-----------
---0-----0-
--00-------
-----------

Generation = 4, Population = 42.
--0--------
----0---0--
-----------
1-.-----0--
0---.-1----
------0---0
---11------
----1------
--1-----1--
------1-*-0
1-.*-.-0*1-
--10-------
----0----.0
---*------1
---*0*-*.1-
*-*0*-11---
---1----10-

*** Life<Cell> 2x4 ***

Generation = 0, Population = 3.
----
-000

*** Life<Cell> 12x14 ***

Generation = 0, Population = 10.
--------------
--0-----------
---0----------
-------0------
----0---------
-----0-----00-
-0-----0------
--------------
--------------
--------------
-------0------
--------------

Generation = 3, Population = 73.
0-0----0------
----1-0-0-----
---0-100-0-00-
-01-00000--110
011-001*0-0000
-0---0000-*11-
--0---0-01-000
-0-0-10--00110
0-0--0-----00-
-0---0---0----
----0-0-0-0---
-----0---0----

*** Life<Cell> 8x4 ***

Generation = 0, Population = 8.
----
--0-
-0-0
-0-0
-00-
---0
----
----

Generation = 3, Population = 19.
-1-1
1-01
01*1
--**
*--0
0-0-
011-
-0--

Generation = 6, Population = 16.
1*-*
.10*
-1..
--.*
*0.*
---1
1.-0
-.11

*** Life<Cell> 6x10 ***

Generation = 0, Population = 5.
----------
----0-----
----------
--0-------
-------0--
--0-----0-

*** Life<Cell> 6x5 ***

Generation = 0, Population = 5.
-----
-----
---0-
-----
-00--
-00--

Generation = 5, Population = 14.
0-*10
0--0-
--.-0
-*--0
*-1-.
-1-11

*** Life<Cell> 13x20 ***

Generation = 0, Population = 17.
--------------------
-------------------0
-----------------0--
-------------0-0-0--
--0-----------------
--------0-0---------
----------------0---
-----0-0-------00---
--------------0-----
---0----------0-----
--------------------
----------0---------
--------------------

*** Life<Cell> 19x6 ***

Generation = 0, Population = 11.
------
------
------
--0-0-
----0-
------
------
------
-----0
-----0
------
---0--
------
-----0
--00--
------
---0--
------
---0--

*** Life<Cell> 15x19 ***

Generation = 0, Population = 14.
-------------------
--0----------------
----------------0--
-------------------
---------0---------
--0-------0--------
---0---------------
-------------0-----
------0-0----------
-------------------
----------0---0----
---------0---------
---------------0---
-------------------
--0----------------

Generation = 6, Population = 111.
---0---0-0-00-0-0--
0-0-0-------10-----
-0----1-001--00---0
--0---1---00--10---
----1-.-0--01.000-0
--0-0-------11.-10-
--1-0-*---0-01*00-0
0---------1---11---
0--1*---1-10011-110
0---10--0---1--1-0-
01--100-01*10-1*1-0
--01---0--1----0---
--01--0-011--1*0--0
-----0-------------
----0---0-01-1.*10-

*** Life<Cell> 4x7 ***

Generation = 0, Population = 8.
-------
-000--0
----0--
--0--00

*** Life<Cell> 3x18 ***

Generation = 0, Population = 10.
------------------
----0--------0-00-
---0--0--0--0--0-0

Generation = 4, Population = 14.
---------------.--
0-------10-*0---1-
--1--1-11-1.---11*

*** Life<Cell> 4x19 ***

Generation = 0, Population = 16.
-------------------
--0---0-00------0--
-----0-0---0---0---
-0------0-000-0-0--

Generation = 6, Population = 32.
-0---*-*-11*0--0-0-
.*0-*.-.*.-0------0
--1.0---1---0--1---
1..1*10-1-...0**100

*** Life<Cell> 19x12 ***

Generation = 0, Population = 15.
------------
--------0---
------------
---0--------
------------
------------
------0-----
---0------0-
---0-0---0-0
------------
----00---0--
------------
------------
------------
------------
------------
--------0-0-
---0--------
------------

*** Life<Cell> 2x17 ***

Generation = 0, Population = 6.
-----------------
-00----00--0--0--

Generation = 7, Population = 22.
1****--11-0-00-00
***-*1*..0.0-1.0.

*** Life<Cell> 3x15 ***

Generation = 0, Population = 5.
---------------
----0---0------
--0-0---0------

Generation = 5, Population = 20.
0---1---1---0--
-0.0.000-0-010-
0--0*--0.--010-
