20

6 5
20
5 3
0 0
1 4
4 1
0 0
1 0
2 0
2 3
4 1
3 0
2 4
5 3
3 0
2 1
2 1
3 2
0 2
1 3
0 0
5 4
37 31

10 4
22
0 2
6 0
6 0
0 3
6 0
7 0
4 3
1 0
0 0
6 3
1 1
5 0
1 2
9 2
3 0
0 2
6 0
9 2
0 1
9 2
2 2
0 1
17 3

8 5
22
3 3
0 0
2 2
7 0
6 3
7 3
3 3
7 1
7 3
5 2
6 2
1 2
7 3
3 4
2 2
5 0
2 2
4 4
6 2
2 1
3 0
4 4
36 19

12 12
23
4 5
0 11
7 10
7 6
8 10
9 0
5 2
5 10
2 6
8 1
2 4
4 0
9 7
2 9
3 4
5 10
6 1
3 10
7 3
10 2
6 9
2 5
2 1
11 1

6 5
23
1 2
2 2
5 0
5 4
1 4
4 0
1 1
3 2
3 0
1 2
3 1
5 4
2 3
0 1
3 4
5 1
5 2
2 3
2 3
2 2
5 4
2 3
4 3
45 6

12 4
18
10 3
1 0
3 1
6 0
9 2
7 2
11 3
9 2
9 1
8 1
6 1
0 0
2 1
7 0
9 3
11 3
2 2
8 3
29 17

8 11
20
5 10
0 9
1 7
1 8
1 0
4 6
2 4
7 6
3 5
0 8
2 5
2 6
2 4
6 8
0 4
0 4
6 3
6 4
1 1
4 6
29 3

6 10
20
3 3
3 5
5 1
0 4
2 2
4 2
3 3
1 7
4 8
4 1
2 7
3 7
2 9
2 1
5 5
0 2
0 9
2 6
1 6
3 2
28 2

5 12
20
4 7
4 2
4 11
4 2
1 1
4 4
0 5
0 0
2 2
3 5
1 2
0 7
0 11
2 7
3 11
4 6
1 4
3 1
1 8
4 9
44 44

9 8
19
0 7
7 2
2 3
5 7
5 7
8 0
6 7
0 2
1 3
6 2
5 4
2 4
0 4
4 6
6 2
7 4
3 0
6 0
4 0
9 3

5 11
17
3 4
2 3
3 9
3 8
4 1
3 9
2 4
2 7
4 0
0 10
2 7
2 8
1 5
1 6
2 0
2 6
2 5
10 8

7 12
17
0 3
0 5
0 0
2 11
2 8
3 1
3 1
5 2
6 5
2 2
5 11
2 3
1 3
5 2
1 11
4 11
4 7
44 8

9 11
18
8 7
7 3
3 1
8 9
1 3
0 9
7 0
4 3
3 8
0 5
4 3
8 8
3 3
0 0
0 1
4 0
5 10
5 6
33 21

5 9
21
3 7
3 8
2 8
1 8
4 4
0 5
4 2
4 2
0 4
1 8
0 1
1 2
0 3
3 5
4 2
0 4
1 8
3 2
3 8
1 8
3 7
49 4

11 5
18
1 2
8 1
5 0
3 4
4 1
1 2
1 4
2 3
9 1
9 3
1 3
10 2
4 3
3 3
10 4
9 0
6 4
1 3
45 10

10 12
20
5 6
5 7
3 4
6 7
5 5
4 11
5 8
3 3
8 9
4 11
0 3
3 6
1 1
9 8
8 10
7 2
9 1
7 4
0 5
6 9
35 16

5 6
20
2 1
0 5
2 3
4 2
2 3
2 1
3 3
1 3
2 2
1 4
2 5
0 2
3 0
3 2
3 0
1 0
3 4
3 3
0 4
0 2
3 1

10 11
17
8 0
4 0
9 4
4 2
0 8
9 2
0 2
3 3
7 4
9 0
1 3
0 7
6 3
3 7
2 4
4 10
1 1
35 31

11 9
20
2 2
0 1
9 2
0 1
1 8
1 2
1 6
2 3
1 0
0 3
6 3
6 4
4 5
2 2
5 0
0 8
4 6
2 5
1 1
0 1
15 7

7 7
17
5 4
4 3
1 1
3 4
3 3
1 2
0 2
5 1
3 1
5 1
0 2
1 0
5 4
6 5
4 3
5 6
3 6
19 2
