*** Life<FredkinCell> 40x43 ***

Generation = 0, Population = 20.
----------------------0--------------------
------------------------------0------------
-------------------------------------------
---------------------0---------------0-----
----------------------------0--------------
-------------------------------------------
------------------------------------------0
----0-----0--------------------------------
-------------------------------------------
-------------------------------------------
-------------------------------------------
-------------------------------------------
-------------------------------------------
-------------------0-----------------------
-------------------------------------------
-------------------------------------------
-------------0-0---------------------------
-------------------------------------------
-------------------------------------------
-------------0-----------------------------
-------------------------------------------
----------------0--------------------------
----0--------------------------------------
-----------0-------------------------------
-------------------------------------------
-------------------------------------------
-------------------------------------------
----------------0--------------------------
-----------------------------0-------------
-------------------------------------------
-------------------------------------------
-----------------------------------0-------
---------------------------------0---------
-------------------------------------------
-------------------------------------------
-------------------------------------------
--------------------0----------------------
-------------------------------------------
-------------------------------------------
-------------------------------------------

Generation = 112, Population = 468.
+-----+-+-----+-+-----+-+----++-+-----+-+--
-+---++-++-+--+--+---++--+---+--+--+-++-+--
-6------+++--+---7--+++---+-++-9+++--+---++
+--+----+----+-----+-------+--+--+-+-----+-
-9---+----+-+------------++-++---+--------+
-+-+-+--++-+-----+---+--+----+---+-+++----+
--+-+-------+---------------------+--------
+--+------------+--+--------+---+-+--------
--+---------------+-+---------------+------
---+-+--+----+-----+-+--+--++----+++-9-----
--+-+----++--+---++-------+-+------------++
--------++-+--+--+-+----+----+-----+-+--+--
-+--+++---+--+-+-----+---++-++---+--9++---+
-+-+-++------+-------++-9+----+--+----+--9-
9-----++++---++-----+-+--+----+-+----++++--
--------+--+----+----------+-------+-------
+-----++++----+-8-----+-++----+-+----+9+++-
+----++------+---+-+-++-+--+--+-++-+-++--+-
-+--+++-----++--+-8-----+++--+------+98+-++
---+--+-+--+--+-++-+---------+-------------
---------++-++---+---8----+-+--------+---++
-+---++--+-+-+-----+++---++------+---+--++-
--+-+-----+-+-----+---------++-------------
-----------++-+---+----------------+--+----
------------------+---------------+-+------
------+----++-----+--+-------------+-+--+--
-++-+-----+-+-----+-+----++--+----+-------+
-+-+-++----+---------+---+----+--+-+----+--
-----+---++-++---+--+++---+------+---+---++
--------++---+--++----+----+-+-------+--9+-
-+--++++-9----+-+----++-++----++-+--+-+--+-
7--+--+----+-+-----+----7--+----+--+-------
6----+++++----+-+----++++9---++-9-----+-++-
-+-+----+-----+-+--+-++------9-----+-++-+--
+-------+++----+----++++-+--++--+-9--+--++-
++-+--+----+----------+-++------6+---------
-++-++---------------+---++-++---+---+----+
---+8+---8+--+---+-+-+-----+-+-------+---+-
--9-+-----+-++----+-9-----+-+-----+------+-
----------------------+-------+------------

Generation = 224, Population = 708.
------+++++-+++++----+-+++----++++---+++-+-
++---++-+--+-++-++---++-+----++-+-----+-++-
++---+-+-------+-++-++++-----+-+-----+-++-+
-+-++-+-+-+-+++-+-++-++-++--+-+---+--++-++-
+++-+--------+-+----+++-----------------+--
----+-+--++-+++-+-+------+-+--+-++--+++---+
-+--------+-+-----+-++---++-++----+-++----+
-+-++-+-+-+-+++-++++-++-++--+-+---+--++-+--
------------+-----+-+-------+--------------
---++-+-+++-+++-++++-++-+--+--+----++++-+++
-+--------+-++-+-++-++---++-+----++-++-+--+
-+-++-+-+++-++--+-+------+--+++-+++--+-----
+++-+--+-+---+-++-+--++-+++---------++-+++-
---++-+-++++-++-++---++-+-----+------++-++-
+----+-+-----+-++---+++++--------------++++
+----++-++---++-++---++-+-----+-+----++-++-
------+++++--+++------------+-+-+-+---++-+-
---+--+-++---++-++------+--+----------+-++-
----+-++++--++++-+---+-+----+++-++--+-++-+-
++---+--------+--+--+++-+++--++--+-++-+-+++
-++-++-+--+-+--+-++-+++------+---+---+-+-++
----+-+-+++-+++-++++-+--+--+-------++++-+++
--+-------+-+-----+---+---+-------+-+-----+
-----++-+---+++-+++-+---+-+---+--+-++++-+-+
-++-++----+-+-----+-+----+---+---++-+-----+
+--++++---+-+-+-+++-----+-----------+++-+++
--------+-+-------+-+-------+---+++-+------
---+-++-++-++++-+++-+---+-+------+-++-+-+++
-+---+-++-+-++-+-------+-+---+--+++-++-+--+
++--+-+-+++--++-+--+----++---++-++---+--+--
++----++-+---+-++++--++++-+--+-+-+----+++++
------+----+-++--------------------+--+-++-
+-----++-+-----+++--+++++-+-----------+++++
+-----+-++---++-++----+-++----+-++---++-++-
-------++++-+-++-+-----+-+----++++---+-+---
+--+-++-++---++-++-++-+-+-++--+-++-++-+-+++
--------++----++-++-------+-+++-+++-+--+-+-
++---+------+---+++-+++-+-++-+------+-+--++
--+-++---++-++-+-++-+-----+-++---++-+-----+
+----++-++-++-+-+++-+-+-+-++--+-++-++-+-+++

*** Life<FredkinCell> 13x50 ***

Generation = 0, Population = 19.
------------------0------------------------------0
----------------0-------------0-------------------
---------------0-------------------0--------------
-------0--------------0---------------------------
-----------------------0--------0-----------------
------------------------------------------0-------
--------------------------------------------------
------0-------0---------------------0-------------
-----------------------------------------0--------
---------------------------------0----------------
------------------0-------------------------------
--------------------------------------------------
--------------------0----------------------------0

Generation = 27, Population = 341.
---0--6731-2-3-6-3-2--6-723-----3-36----5-51-2--3-
4----022005-1-----62-0-04--3---2---54322111110-22-
11-2-234-205-575936---454-2---1-+-7-3------14-1---
2322---4--2-36--4-----40---2--61-33070-0--2070---4
-12-42----26--66---5-32-1-5-32-15256723--20623----
1--110--40-1--85214--0-25--23---314--11-3-----3232
4-21--153--032-2----1--2-2353-3-947-3-1-4---400--3
1---2--28-303252-16---311--0-120--7-3--04212-2-115
-02022-----240-+325-84251-10-3------41-31-1303-31-
-020-041---1-23--2-3-22--12--0--5476-2--16---5-538
----10-31--03----1--4-------81-1-224-525---3-2--43
325---4--5----5130---311---010---3-0--203-22-1--23
--201-00--3-512-----201---3-2-0223-+7--3----3300--

Generation = 54, Population = 336.
-55--8++--9-87-+--+688---+-+--+99-8+--+-----25--96
9-8-9-476-8-7--5+---4-2-+--551569+4-+64+---3--293-
-8+-7-6-7--++-+7---++-7-576----9-8+74+7-9-38+----6
-6--5---+-8-+-+-+5+7+-9--8------++88-4+77--4-----4
--7--++8638-+3----+----+898++683+7+--74--+5-8-68-2
--85---6+-8-3--694-486-8----836-9---3-6-6-88----94
6-9+-08+--3-+---+-----8-75-9---++--5-59--60--405-9
+6+--7+--7+-8996-4+28-+4----9-+3-7+--6+8-88414-3--
-----+-+--67+9--58----3-8+67-7-++49+-44-8+---+3+5+
+--3--+4----36-7-6---4--+57-----++---7+8---75---7-
---65-8---5-+----889------74--48++3+-------81---++
968-8-+--87-9681+1--83-6+----------4-----5----6356
-6+3-3-87-6-+2+++-++-95-49-8-755-+3++-27-+3---2-9-

Generation = 81, Population = 314.
++------+-+----+++-9------++--++-+++--+++-9-++--++
-7+6+----2-3-3-8-9-----6-----679+-+-----9--7+--+--
-++-+--------++-+++-+-9+------++++-+--++++-++8-9+-
-7+5++-+--+-++---+-+-++6+--++++-+++++-+-+++7-+-++9
--+--+---7++--+++-+-+-++--+-+---++++-+8+7-++++-+--
---+-----5+9--+9---5++-+----++--+----5-+-7--9-9+-6
-++-+-++----+------++8+---+-++++--+-++--9-6-+6--9-
--+8--+9++-----8-5-4---+-+-6+---+-+3++---+--9-+8-+
7-+---5+---+++---++--+--+----+-+----+-------6----+
--+7+7-+--+--++++++-+7-+-+-+5++--+---+-+6-----+++-
-7--+7--+-96+++---++-+-++-+8-+9++-++5--+++7+5+--++
+++6+8-+-+------+-+-+-+++76-------+6-5--++949-6-98
+9+-6-----+----+-+-----+++-+++----------+++---4+-7

Generation = 108, Population = 335.
++++++++-+++--++++----+-++++++----+++----+-----+--
+---+--+---8++--+-+-9-+-----+-+-+--------++--++++-
-+-+++++-+-+++-++-+++---+--++++--++-++--++-++-+-+-
-++++--+-+-++++----+++-+++-++-+-+--++--++--+---+--
++++++++-+---++-+-+-+++++--+--+-++-++-++++++---+++
+-+++-+--+-----+-7-++-----++------+--+-++--++--++-
+-+-+8++--+++--++++--+--++++---++-----++++-++--+-+
+--+---+-+-+--+-+++8-9-+-+-+++----+9+-+++---++-+8+
++-++--++-++-+++--++-++-++-+-------+--9+--++++-++-
+--+++----+++--+--+--+--+-+++++9++-++---+--------+
+-8---+--+-------+-+-+--+--+++++----9-+++--+7++---
+-+--+-+++--++---++-+9-++9--+++-+++---+++++9-++-+-
---+-6-++++-+-----++---++--++-+-+-++++---++-+---++

Generation = 135, Population = 319.
+--++--+-+++-++-+-------+----+--++-+--------++--++
+++++++--+++++-+---------++---+--+-+--------++++-9
+-+++-+++-+++-+-+---------++--+++-++-------+-+-+-+
+--+-+--++-+++-+-+-----+---+-+-+-++-+----+-+-++--+
-+++---+----+++-+++---+-+--++-+++--+++---+-+--+--+
++----+---+--+--++-+++------+++++-+-+++++---+--+++
+--+++---+-+-+-+--++-+--++----++-+++-+---++-++-+--
+-+++++-+-+--+----+--+++-++-+--++-+-++-++++-++++--
--++++-+-++-+++--++-+--+----++---++++--+++--+++---
+8-++-+-++--++++++--+--++++--++++++---+-++---+----
+++-++--+--+-++++--+++--+-++--+--++-++++-++-++---+
++++-+-++---+-----++-++--++++-++-+-+--+--++++-+--+
-+-++9---+------+---+--+-++++-+++-+-------+--+-+-+

Generation = 162, Population = 313.
-+--+--+-+--+--++++++++--+---+--+---++++-++---++-+
-++++-+++---+++-----------+-+-+--+++++--+--------+
-+--+--+-+-----++++++++-+++--+++--++--------++-++-
+-++++++++-+--++--+---+---+-------+-++--+++-+--+-+
+---+----+--+-+++-+-+---+-++++-+-+---+-++++--++++-
-+++-++-+++-+++--+--+--++-----++----++--+-++--+-++
+-++-+-++++++--+++-+-++-+-+---+--+-+-+---+-++--+-+
-+---++++-+-+--++-++++++++-++-++--+--++++-+-+-+---
-++--+--++---+-+---+++---------+------++++--+-+-++
----+-+----++-+--+---++------+-+-+++-+--++--+---+-
+---+-++-+--+++++++-++++-+++--+-+--+-++++-++-++++-
+---+-+-++--+-+-+---++-+-+++--+-++--++++++--+-----
++---++++++--+-+---+--++--+-+-+--+---+----+-+--+--

Generation = 189, Population = 313.
-----++----++--+-++--+++-+++-------+-++-++-++-++--
+---++-+-+++--+---+-++----+----++++-++----++-+--+-
--+-+---+++-----+++-++---++--+-++++++--+++++++-+-+
+++----+--+-++-+------++---++-+-+-+--+-++-+++----+
-+-+-+++---+-++--++--++++--++--+---+-+-+--++--+-+-
-+--+-++---+--+++---+--++++--+--++---+----+---+--+
+-+---+-+--++-+-+--+-+++++------+-+++++--++-+-+++-
++----++---+--+++++-+---+----++-+--+-+--+---+-+-+-
+--++--++---+++-+-+-+-+-+--+++-+++++++--------+++-
-+-+-++++-+-+-+++----++++-++++---+-+--++---++-+-+-
+-++-++++++-+-+-+----+-++-++-+-+-++++++-+--+++--+-
+-+++---+-+---+-+++--+-++-++-+++---+-+-----++--+--
-+-+-+--+++--++-+--+-++-++--+++-+---+-+---------++

*** Life<FredkinCell> 46x47 ***

Generation = 0, Population = 16.
----------------------0------------------------
-----------------------------------------------
-----------------------------------------------
-----------------------------------------------
-0------------------------0----------------0---
-----------------------------------------------
-----------------0-----------------------------
-----------------------------------------------
-----------------------------------------------
-----------------------------------------------
-----------------------------------------------
----------------------------0------------------
-----------------------------------------------
-----------------------------------------------
-----------------------------------------------
-----------------------------------------------
-----------------------------------------------
-----------------------------------------------
-----------------------------------------------
-----------------------------------------------
-----------------------------------------------
-----------------------------------------------
-----------------------------------------------
-----------------------------------------------
---------------------------0------0------------
-----------------------------------------------
----------0------------------------------------
-----------------------------------------------
----------------0------------------------------
-----------------------------------------------
-----------------------------------------------
------------------0----------------------------
----------------------------------------------0
-----------------------------------------------
-----------------------------------------------
-----------------------------------------------
-----------------------------------------------
-----------------------------------------------
-----------------------------------------------
-----------------------------------------------
-----------------------------------------------
-----------------------------------------------
-----------------------------------------------
---------------------------------0-------------
-----------------------------------------------
---------------0-----0------------------0------

*** Life<FredkinCell> 30x10 ***

Generation = 0, Population = 19.
-------0--
-0----0--0
----------
----------
------0---
---0---0--
----------
0---0-----
----------
------0---
----------
----------
---------0
----------
------0---
-0-------0
----------
---0-----0
----------
----------
----------
----------
--0-------
----------
----------
----0-----
----------
----------
---------0
----------

*** Life<FredkinCell> 40x2 ***

Generation = 0, Population = 19.
--
--
--
00
00
-0
--
0-
--
--
-0
--
0-
--
--
--
-0
-0
0-
--
--
-0
--
--
--
--
--
--
0-
-0
--
--
--
--
00
--
00
--
0-
--

*** Life<FredkinCell> 48x16 ***

Generation = 0, Population = 18.
----------------
----------------
----------------
--------------00
0---------------
----------------
----------------
--------------0-
--------0---0---
----------------
--0-------------
----------------
----------------
----------------
----------------
----------------
----------------
----------------
----------------
----------------
----------------
----------------
----------------
----------------
----------------
----------------
----------------
----0-----------
----------------
-0--------------
----------------
----------------
----------------
----------------
---00-----------
0---------------
----------------
---------------0
----------------
----------------
----------------
0---------------
----------------
----------------
-------0--------
----------------
----------------
---0-----00-----

Generation = 180, Population = 339.
+++---++-+-+++++
+++-++++++-----+
-++-+-----------
+--------+++----
--+----+-+-+----
-+----++-+---+--
+-++++--++-----+
+----+---++-++-+
++--++---+++----
--+-++-+-+++---+
----+++++++---+-
--+-+++-++-++--+
--+---+-------++
--++---++-+--+++
++-+-+--------+-
++++--++++--+-++
++-++++-++--+++-
-+-+-+-++--++-+-
+-+-+-+---++++--
-++----+----+---
+-+--+++--+---+-
-++++-++---+-+--
+---+-+----+-+++
-+--+--+-+-+-++-
----++--+--+-++-
-++++--+----++-+
+---++-+-+-+-++-
--+++--+-+---++-
+-+-+-----+---+-
+--+------+-+---
++-----++--+++++
--+------+--++--
--++-+-----+-+--
+++---+-+-----+-
---++++-+----+--
+-++---+-+-+++++
+-+---+--++-----
-++-+---++--++--
+--++-++++--+--+
+++---+++----++-
--+-+-+-+--+----
+-+---+--+++--++
++--+++++++-+---
-+++--+-+-+-++++
+-+-+-+-----+-+-
-+--+-++++-+-++-
-+++----++---+--
--+--+--+++----+

*** Life<FredkinCell> 47x46 ***

Generation = 0, Population = 19.
----------------------------------------------
-------------------------0--------------------
--------0------------------------0------------
----------------------------------------------
-----------------------0----------------------
----------------------------------------------
----------------------------------------------
----------------------------------------------
----------------------------------------------
----0-----------------------------------------
----------------------------------------------
----------------------------------------------
----------------------------------------------
----------------------------------------------
--------------0-------------------------------
------------------------------0---------------
---------------0-----------0------------------
----------------------------------------------
----------------------------------------------
----------------------------------------------
----------------------------------------------
----------------------------------------------
----------------------------------------------
----------------------------------------------
----------------0-----------------------------
----------------------------------------------
----------------------------------------------
----------------------------------------------
-0--------------------------------------------
----------------------------------------------
---------------------------------------------0
------------------------------------------0---
----------------------------------------------
-----------0-------------0--------------------
----------------------------------------------
---------------0------------------------------
----------------------------------------------
----------------------------------------------
----------------------------------------------
---------------------------0------------------
----------------------------------------------
----------------------------------------------
----------------------------------------------
----------------------------------------------
--------------------------0-------------------
----------------------------------------------
----------------------------0-----------------

Generation = 152, Population = 656.
++----++-++--+-----+-+++-++-----+---++--+++---
-+-++----+-++----+-+--+--+--+--+-+-------+-+8-
++--------------++++-+-+--+-----++++-----++++-
-----------------------+-------9-------+------
---------+++------------++++---8-+++----++-+--
--++-----+--+----+--+--+-+-+--+--+--+----+-+--
--+--++-+---++++-++-----+--+++-++-+-----+----+
---9----+-----+-+-++---------------+-----7+-9-
++---+---+--+-+--++--+-------++---8-------++-+
---++--+-+-+--+--+--++-+---+--------+---++-+-+
-+-------++--+-+--------++++---+-++-----++-+--
---------------+-+-------------+-----------+--
+-+--------------+++-------+----++-+---+---+--
----+-----+----6-+--+----+--+----+----+--+----
+----+----+----------+-++-+-----+--+-+---++---
2----7+-+-+-----9-----+-+-+6---5--+-+---+-+---
++--++++++---+---+-++-++--+--+--+-+++++++-+---
---++-------++-----+--+-----+8-------2-9----+-
+-+----+-+-------++----+-+------++-+---+-+----
-------+-+-------------+-+-----9---+-----+----
--------+-+--------+-----+++----++-+-----+---+
--++---+----+-----+------+-++----+------------
-7+4+-------+++---+--------+-++++-+--------+-+
+6++--+-+----++-+-6----++-+-+-+-+-+----+-++-+-
++--+++-++--8----++--+--+-+-++----+-----+-9+++
--+--+-+-+-++----+--++-+-----+++----++---+-+-+
--------+-+--+-+---------++----+++---------+-+
-+-------------+-+-----+---+-----------+---+--
-----------+----+-+-----++-+----+++--+--++-+--
---+------++-------++--------------+----------
+-++-++--++++------+++----+-----+--+-++-+-----
+---+-+-++++--8+7-+-+++-+-+-----+-+-+-+-+-++-+
+++----+-+--++-----+++7+-++-----+-+-+++--++---
----+----++--+---+--++-+-+--++-+-+-+-+++-+-+-+
-----+-+--------+-+--+--+-------+-++---+++----
-----+---+-----+-+-+-----------+---+-------+--
-+------+-------++-+--+-+-+-----+--+-----+-++-
---+---+---+---------+---+-+-----+-----------+
++-++-+-+-+--+----+-+---+--+++-+--------+--+++
+-+---++---------+-+----+-+-7+4-+-+8-+--------
+---++----+--+++-+--+------+++-+--+-------+--+
--+--+---+-++----++--+-+-+--9+-+-+---+---+-+-+
-+------+----+--+-----+-+-+----++--+-------++-
-+-----+-+-----+-+-----7-+-+-------+-----9-+--
+----+-+++----+-+------++--+--+-----+---+--+--
---+------+--+-+-+-++----+---+---+---+-5-+----
9-+--+--+---+-----+--9-+----+---+--+-++--++---

*** Life<FredkinCell> 11x39 ***

Generation = 0, Population = 19.
----------------------0-------------0--
---------0--------------0-----------0--
0------------------0-----------------0-
------------0------0-----0-------------
------------0--------------------------
---------------------------------------
-----------------------0---------0-----
---------------------------------------
------0-------------0------------------
-------------0-------------------------
0------------0-------------------------

Generation = 69, Population = 217.
-7+7-4--+8-8+---+------+++++-+-6-+--+++
--9--+-+---5-+88+--++-+-9+--------+--9+
+---+-+7+++-+---+++9-++-8--+---7++-9-++
+++-++--+++------+9-++49----+---++5--+7
9--+-9+7++8--++++++--++-+++++---8-5---8
-+--+-+++-96---5-9-7----+-+-+-74-9---+-
5-------6-+7---6-++-+--++-7+8+77-+-6+-8
-+87----------6-----+-------8---268+---
++-+-+-+-----++--+++------+++---++-+++-
----68984-9-+486-+9--++-+++---43+-+-+6-
++++++-+++---+7+--++9+-5+99--++--++8++-

Generation = 138, Population = 209.
++-----++++++-+--++-++++++++-++--+-+++-
+2+-++-+----+-++++++-+-+-+--++--+++++--
+--++++-++-----+++--++-8-+---++-+-++-++
+-+-++-+++---+++----+---+---+-+----+--+
---+-+-+++--+----++--+-++-++----+++-+--
-+++-4+---+---++-+-+-++-++---+-+++++--+
+++------+-+---++++-++-+++--+--+--+----
-----+---+---+---6---9-----------+---+-
+-+++---+-++-+++++-+++++--++--+-+-+-+--
--8++-+-----+-++--+-+-+++-------+---+-+
-+++++7-+-+-++-+-+-+++--++++-+-++--+-+-

Generation = 207, Population = 218.
+--+--+-+-----+4+-+---+-+------+----+-+
-4+-++---+---++-+--+-+-+-++---+-++-+--+
-++++---+-+-+--+++--+-+-+--+-+-+++---+-
--++---+-+--++++-++----+-+----+++-+-+--
--++--+-++-++---+-+-+---+++++-++-+-+-+-
-++-+8-++--+-++--+++-+--++------+-+-+++
++-+++++-++++-++-++++-+++--++-+--+-+-++
+-+++++44+-+++-9-9++-+----0+++-9--+----
++++++++--+-++++--+-+--++++++++-+----++
--++-++-+--5-+--+-++--+---++++++--+-+++
++--+--+----++-----+-+-----++-++-+---+-

*** Life<FredkinCell> 8x5 ***

Generation = 0, Population = 15.
-0-0-
000--
-00-0
-----
-----
-0--0
--000
0-0--

Generation = 87, Population = 18.
-+-+-
+-+6-
--+--
+++--
--++-
++--+
-++--
-+-6-

Generation = 174, Population = 23.
++-++
+--++
-++-+
++---
--+++
-++--
+++--
-+-++

*** Life<FredkinCell> 35x48 ***

Generation = 0, Population = 16.
------------------------------------------------
----------0-------------------------------------
------------------------------------------------
-----------------------0------------------------
------------------------------------------------
------------------------------------------------
---0--------------------------------------0-----
----------------------0----------------0--------
------------------------------------------------
--------0-------------------0-------0-----------
------------------------------------------------
------------------------------------------------
------------------------------------------------
------------------------------------------------
------------------------------------------------
------------------------------------------------
----------------------------------------------0-
------------------------------------------------
------------------------------------------------
------------------------------------------------
------------------------------------------------
-----------------------------------0------------
------------------------------------------------
------------------------------------------------
----------------0----------0--------------------
------------------------------------------------
------------------------------------------------
-----------------------------------0------------
--0-------------------0-------------------------
------------------------------------------------
------------------------------------------------
------------------------------------------------
------------------------------------------------
------------------------------------------------
------------------------------------------------

Generation = 144, Population = 186.
----------------+---+---------+---+-------------
--+---------------------+---------+-----+-------
--+-------------------+-------------------------
---------+-----------+-----+-------+-+----------
------------------------------------------------
+----+------+------+----+-----++-------------+--
--+-----+9------++---------++-----------+9-----+
-----+--++-+----------++-+-++-------+-+--+-++---
9+-----------------8----+++-----++----++---7--+-
----+---+-------+-----+------------++---------+-
--+-------------------+-------------------------
-------+-----------+-----------+---+---+---7-+--
------------+-----+-------+-----+-----+-----+---
----+-------------+-------+-------------+-------
----------------+----------+------------------+-
------------------------------------------------
+---+---------------------------+---+-----------
----+-------------+-------+--------+----+-------
------------------------------------------------
-----+-+-------------------------------+---+----
------------------------------------------------
--------++-----+-----+------+-------+----------+
-----------++------+----+++------+----+-------+-
---------+------------++---+----------++-+--+---
--++---------+---+-----+----+-+---+------++-----
+-----------+-----------+-----+-----------------
------------+-----+-------+-----+-----+-----+---
-----+---+-----+---+-+-+-------+-------------+-+
--------+-+-----+-----+-----+-------+-----+-----
--------+-+-----------------+-------+-----------
++---------++-------------------+------+---7--+-
----------------------+----------------+--------
---+------------+---+---------+---+-------+-----
-----+----+--------+-----------+-------------+--
------------------------------------------------

*** Life<FredkinCell> 3x20 ***

Generation = 0, Population = 15.
---0-00---0--00----0
0------------------0
--0-----000-----00--

Generation = 35, Population = 25.
--8+-9+--+---+++23-6
---7+-----9998-7----
-----+-8--9-67---+-4

Generation = 70, Population = 23.
+-+---+++++--+-+--++
-------+----+-------
++--+++-+----++---++

Generation = 105, Population = 26.
+-++-+++--+----+-++-
+--+-+-++-+-+++-----
---+----+-+-++---+-+

Generation = 140, Population = 37.
+--++++-++-+-+-+++-+
+-+-++++++++++++-+-+
+--++-+--+---++-+---

Generation = 175, Population = 28.
+++-+-+-+++--+------
++++---+----+-++--++
----+++++++-+------+

Generation = 210, Population = 27.
++++---+-++------+-+
+-+---+--++--+---+-+
+--+-+---+++--+-+-++

Generation = 245, Population = 30.
-+-+++++-+-+--++----
+--+--+++++--+---+-+
+-+--+-++--++-++---+

Generation = 280, Population = 26.
-++--++-+-+---++++++
-++-++---++---++-++-
---+------------+++-

*** Life<FredkinCell> 4x29 ***

Generation = 0, Population = 16.
---0--------------0-0-------0
-------0------0------0-0--0--
-0------------0---0----------
--00-0--------------------0--

Generation = 14, Population = 57.
--14--352-----60-17-2-4------
-26-36-34214----3-313-35-13-3
1--52--2-321-34---4-2-3------
---314-34--227---0-5--16-1204

Generation = 28, Population = 62.
---9287---+-6-9-85-24-+0-1527
45+--8-98--7636467--------564
---+---3567--4-1---7--40---0-
84+53-54-492--7-2-9-462-6-2--

Generation = 42, Population = 56.
-8-+4-9---+7--+197-7-7+-2----
+-+--+2+8+-+-----+99---+55---
-+---++----647+-+-+-88+8-995-
---79-86--+-++-946-+--------+

Generation = 56, Population = 57.
-++--+--+---+++--+-+-+----++-
-++---3-+++-----+--++9-++-++-
5++--++++-+++++--+--+--+++---
-8--+--9+8--++-+--+--+7--8+8-

Generation = 70, Population = 49.
-+---++-+-++++--+-+----------
+-+++---+-+--++++-+--++++8+-7
---+9+----+---+-+-+----------
++++-+--+-+--+++---++----9-+-

Generation = 84, Population = 56.
+-+-++---+---+--+++---+----++
--+++--+-+-++-+++--++--++-++-
-+++----+-+-----+-++-+--+++-+
++--+-+-+++-+----++++-++----+

Generation = 98, Population = 60.
++-+++++-+--+-+--+++-+-+8++-+
-+++---+-+++---+-+-+-+-++-+--
9+----++-++-------+-++++-+++-
-----++-+-+---++-++-+-++--++-

Generation = 112, Population = 64.
++-+--++---+-+----+-+--+-+-+-
--+--++-+-+--+++-+++-++---++-
--+++---++++++-++-----+++-++-
+-+-++---+-++-+-+++++++++++++

Generation = 126, Population = 47.
-+-----+-++---+---+-+-----+--
-+-+++++++---+++-+---++++--+-
---+-+--+---+-----------+---+
-+-++++-+++-+---+++-++-+---+-

Generation = 140, Population = 54.
+-++-+++-----+--+++---+++-+-+
----+--+-++---++----+---+---+
-+++-+++-++++-+-+--+-++-+---+
+-+--++-+--++++---+-+--+---+-

Generation = 154, Population = 42.
+--+-+----+-+--------+++-++++
+-++--+--+++--+--++--------+-
+-++-+--+---+---+-----+---+--
-+--++++------+----+--+-+-+--

Generation = 168, Population = 48.
+-++--++-----+-7-+--+---+++-+
+-+------+------+-+-+--++--+-
-+--+----+++----++++--++-+++-
--+-+---+++-+--+-+--++----+-+

Generation = 182, Population = 59.
++-----++-++-++8++--++++-++++
-----++--+---+-+---+-++-+---+
--++-++------+-++-+---++-++-+
--++++-++-++-+++-++-+---++-+-

Generation = 196, Population = 38.
-++-+------++-----++--+-+----
+-++---+--+---+-+--+--------+
++++---------++--+--+---+----
-------+-++++-+-+-++---+--+--

Generation = 210, Population = 70.
-+++----+++-+++----+--++-+-++
++-+-+---++-+-+--+-++++--+---
-+-+++-+++---+++++-+--+++++++
-+--++-++++++-++-++++++++-++-

Generation = 224, Population = 57.
-++---+--++-+++-++-+-++--+-+-
--+-++-++--++-------+-++-++++
-+-+--++++--+++-++------+--++
++-+-++-+------++--+-+-++++--

Generation = 238, Population = 60.
----+-----+-+-+-++-++-----+++
++-++-+-++++-+++-+++-+++++-++
-+----+++--++---+++----+-+---
---++++--++-+-+--++-+-+++--++

Generation = 252, Population = 44.
-+-+---+++----+++-+-+--------
+-+++------+-----++-+++------
--++---+--+++++-+---+--------
--+---+++-++-+-+---++---+++-+

Generation = 266, Population = 55.
++---++-+++--++-+++--++----++
--+----+++-+----+++++-+++-+--
-+++--+-+++-+++----+++--+---+
-++-+-+-+-+-+------+-----+-+-

Generation = 280, Population = 59.
++-+-++-++-+---+---+-----+--+
++-+++++--+++-+--++-+---++-++
-++---+----+--+-++----++++++-
-++-++--++++-+++-+--+---+--++

*** Life<FredkinCell> 48x24 ***

Generation = 0, Population = 18.
-------0----------------
------------------------
------------------------
------------------------
------------------------
------------------------
------------------------
------------------------
---------------0--------
------------------------
------------------------
---------------0--------
------------------------
------------------------
------------------------
------------------------
------------------------
---0--------------------
--0---------------------
------------------------
------------------------
------------------------
------------------------
------------------------
----------------------0-
------------------------
------------------------
------------------------
------------------------
---------------------0--
------------------------
------------------0-----
------0------0----------
------------------------
-------------------0----
-------------0----------
------------------------
----0-------------------
------------------------
-----0------------------
------------------------
------------------------
-------0----------------
------------------------
------------------0-----
---0--------------------
-----------------0------
------------------------

Generation = 56, Population = 454.
14--56798-+6--3-1-9--7++
-6-15-----2---------14--
---6377--7-+3-----4-26--
----6--------------4-+--
---5------3-29-5-8-63-4-
--34-7---5-64-----8-0---
4-9---9-73---84--4+---5-
3-----------4----+-+----
5647----9-7-2-4-4-+8-27-
--7---------0-----59----
2-666------95879---74---
--3--------338-------6--
--5---99---4--5---+-56--
-5-693----2639---9-+072-
3-----8+-895--+--+----6-
----9-3-36-+--------2+-4
--798-6-2595-8----7-2--3
-5-98-----2+----------2-
--634-8976786------89++8
-2--47----4--3------1---
4---6-5---6---7----7--8-
-3454+---8-43-5---6-3--9
-664--+------87+--9+---6
945---------+93+46-43---
9-8775--6-99+--+-6--9---
--6+-7-----4--8--49-----
53867------75-95--+961--
-77------7-+5-----3-5---
6-6---7-7---3-6---8-3-4-
-6++7-8--+8-+----9--4+4-
---+9-----76---+------47
----+9577+7-6-------4+7+
49+++--++---8--76--89--+
---+9-9--77--+-----4--+5
---+7++---7+39-----35-6-
---++----+7-8----+-++-7-
+---6-8-7-7-7-6-9-7---6-
+-9-8--7-5+-6-9--98++---
-473---+---64----+7-----
+++---------8+73++5-7---
----9---47-+1--77------+
678--------3+-7+-78--+--
--+8---9---+4+1---+-4+--
--+97------++-7--7+-5--4
+-7-+-5-5-5---+-7-+---8-
--4++-7---++1--+----+-+8
---77+----+--------+2-+-
----9927+67--------45-++

Generation = 112, Population = 516.
--++-----+-++-++-+-++-+-
--9--+--------+-5---+--+
--+-+-++-++-+-+--+9-++-+
-92---5--+8+-+---+--++-+
+-+-++-+-+--+--+7-+--+-+
-+++--++-++---+-----6+--
--+-++-++++8-----+--++++
---+-+---+-7-+-----+-+--
-+--++++-++-+-----+-++-+
----++-++--+8----+++--4+
--+--+-+-+-+--+-++--++++
-+--++--++-+++---+++-++-
--+-++-+--+++-++--+-+-+-
+------+-+--+----++----+
7+-+8-+--+-++--+--+-+--+
-+---+--------6------++-
--++-+---++-+----++--+--
9---+----+--4---8+---+-+
+++-++++++--++----+-+-+-
-+-+++-+----+--+------8+
+-+--+-+-++-+-+-8-+++--+
+---++-----++-----+---9+
---+++++-++++--+-----+++
-+-+++-----+-------+-+-+
--+-+--+-+-++++-----+-++
--++-+9+-++--+-+----++-+
++-+-++9-++++-----+--+-+
-+++-++---++-+++---+++--
+-+++--+--+-+-----+-+++-
-++------+----++-------+
--+-++-++-+--+++9++-++-+
+--+-++--+++-+---++--+--
-++++------+------+--+-+
++---+-+-+++----++--+--+
-++--++-+-+-+++-+-+++-++
-+-------++------+-++---
+-+++--+-+--++--+++-+-++
-+++-----++---+-+---++--
---+-+++-+++------++8+++
---+---+-++8-+---+--++--
--+++-----8-+-----+++--+
-+--++-+---++------+-+++
--++++-+++-+-++----+-+++
+---++-----+++---+++-++-
--+-+-++--+++-+++--++--+
----+--------+---++-----
++++++-+-++-+-+-++++-++-
-+-+++---8---++++----+++

*** Life<FredkinCell> 4x44 ***

Generation = 0, Population = 15.
--0--0---------0--------0-----------------00
-----0-------------0-------0------0---------
-----0-0---0--------------------------------
-----0-------------0------------------------

*** Life<FredkinCell> 8x3 ***

Generation = 0, Population = 15.
0--
--0
0--
-00
000
-00
-00
000

Generation = 8, Population = 8.
-15
1--
4--
---
-24
-2-
---
--1

Generation = 16, Population = 13.
---
-55
-42
-4-
349
3--
364
4--

Generation = 24, Population = 11.
479
---
---
+6-
4--
--8
-88
-86

Generation = 32, Population = 15.
-9+
-9-
++4
+86
8--
5+-
6++
---

Generation = 40, Population = 14.
7++
++-
-+6
--7
-++
6-+
7--
-+-

Generation = 48, Population = 14.
8--
+++
++7
+--
---
8++
+--
++-

Generation = 56, Population = 15.
+--
--+
+--
-++
+++
-++
-++
+++

Generation = 64, Population = 8.
-++
+--
+--
---
-++
-+-
---
--+

Generation = 72, Population = 13.
---
-++
-++
-+-
+++
+--
+++
+--

Generation = 80, Population = 11.
+++
---
---
++-
+--
--+
-++
-++

Generation = 88, Population = 15.
-++
-+-
+++
+++
+--
++-
+++
---

Generation = 96, Population = 14.
+++
++-
-++
--+
-++
+-+
+--
-+-

*** Life<FredkinCell> 48x13 ***

Generation = 0, Population = 17.
-----0-------
-------------
-----0-------
-------------
-------------
-------------
-------------
-------------
-------------
------0------
-------------
--0----------
-------------
-------------
-------------
-------------
-------------
-------------
--00---------
-------------
-------------
-------------
-------------
-------------
--0----------
-------------
-------------
-------------
-------------
----0--------
-------------
-------------
-----0-------
-------------
-------------
-0-----------
-------------
-------0--0-0
-------------
-------------
-------------
-------------
-------------
-------------
-----0-----0-
------0------
-------------
--0----------

Generation = 115, Population = 303.
+-+--+--8++++
---++++--+-+-
++-+--+-+-++-
-+--++--++---
--++--+++++++
+++--+-++---+
----++-+--++-
--+-+8+-+-+++
+-+-+++++++--
---9-++----+-
+-++------++-
++--++-+--+++
++++---+++---
--++--++++-+-
---+-++-+-+-+
-7++-8------+
-++-+++--++--
-+-++--+-++--
-+-++-+---++-
+-+---------+
++++--+++-+--
------++--++-
--+-++-+++--+
+--+-+----+--
+++-+--++--+-
-+-8-++++--++
-+++++++-+---
+---+-+++---+
++-++++--++-+
-+-+---8-+--+
+-----++-----
+-+--+-----+-
-+---++++----
+--+--+++-+--
+++-++--++-+-
+-+-+-+++-+--
--+------+-+8
--++--------+
++-+++++--+-+
+-++-+-+---+-
+---+--+---++
+---++++---+-
++--+---++-+-
-+-+-++++-+-+
++++-+++--+++
-+++++---++--
-+++----++---
-+-++-++--+-+

*** Life<FredkinCell> 7x44 ***

Generation = 0, Population = 18.
--00----------------------------------------
-------0--------00--------------------0-----
---------------------------------0----------
-0----------0---------------0---------------
----------0----------0----0---0-------------
0------------0-------------0----------------
-----------------------------0--------------

Generation = 29, Population = 162.
7--+86-19-7+-5---5465--35-23--2--130013--4-2
---5++8--7-----78552-3---644-56-+17-4-8-5---
-----25--1676-2--5-------3----130-2-010--125
47--4662-7--5-62-5--364-17-337-5---3-12----1
758+-69-857-----7-3457-238----63---1-7---5--
2-74293-3-+4-5-54434163+42---314---455-4-42-
-2564----132---124-50-8---------227---12-3--

*** Life<FredkinCell> 45x35 ***

Generation = 0, Population = 17.
-----------------------------------
-----------------------------------
-----------------------------------
-------0---------------------------
-----------------------------------
-----------------------------------
-----------------------------------
---------------------------------0-
--------------------------0--------
-----------------------------------
-----------------------------------
---0-------------------------------
-----------------------------------
-----------------------------------
-----------------------------------
--0-------------------0------------
-----------------------------------
-----------------------------------
-----------------------------------
-----------------------------------
-----------------------------------
----------------0------------------
----------------0------------------
----------------------------------0
-----------------------------------
-----------------------------------
-----------------------------------
-----------------------------------
-----------------------------------
-----------------------------------
-----------------------------------
-----------------------------------
-----------------------------------
-----------------------------------
-------------------------------0---
--------------------------------0--
-----------------------------------
-----------------------------------
-----------------------------------
------------------------0----------
-----------------------------------
---------------------------------0-
----------------0-----------0------
-----------------------------------
--------0-----0--------------------

Generation = 22, Population = 465.
----------------1---------0--------
---1---0---0--0--100-0-----0-----00
----------0---0---0-----1----------
-2----------10-011--12-3-0---0-01-2
--------0-------2---2-0------------
-------1--1--11---1---10-0-0-01-0-1
------0-----------3-2-1------------
-0---0---1-010--12--3----2--3-0-3-3
----0---0-----------2-------------1
------10----001----0-----0---01---1
------1---0-------1-------------1--
-1--5---2-1--122----10-2-0----112--
--------0---3---2-------------00---
--33--321-3-3-0-1021-000----1----1-
----------2-----------------10---0-
----4-4-305--31-112-11--0-1--------
1--------------------------0---02--
2--2--1-3-0-0-2-3--00-0-2-----0--21
3-0----------------------01--02---1
202--3--111--10---0---------0--2-24
1-1-2-----------3-------3--10--22-0
2-5-5--0---02-2-2-----1---2--1214--
2-5-4-2-1---------3---3---3--32-124
211-0----0--4-2-7---5---6--142--4--
2-0-0-0-2-0---2-------------1--11-0
3--1----------2-3-2--------0100-3-1
2-1-0-0-1-1-----------2-----0-0----
----10---0------5-3-----5-2--0-010-
0-1-0-0-----2-11-------1--0---0----
0-11--00--------2---3-----2------0-
--0-1-1-----114--0---2--01--1-1-0--
011-01--1-----1---3---1---1-32---1-
----0-1-0-01---21------2--101-0---0
0-00--0-0---1-0-8-1-----1--21-1-1-2
------0-211--1----2-1---21--23-02--
0---0-0-----0-2--1--11----2--0-----
0-------1--0---25-1-3--1---2-11-11-
--0-0---0-0---113-----120------3--3
--0---0------0--414--11--2-1---1--4
--0---1---1-21--2-3---3--0------832
0-----1--------0----4--150---1----1
----1---1--01-1-5-1---0-4-135-----2
----0-0-3---2---------2----24--2---
------1---1--0--20---1---3--0-2----
0-0-----------1---0-0---3-2--3-3-1-

Generation = 44, Population = 428.
0-------0---1-3-----1--0----0------
------------4---4---2--------0-----
----0---3-----2-+--13---3-------0--
-22--0--11-0-4-----22-14---1---47-3
--1-0---4-2-0-----6-4---3--03------
--------1-------6-------60---1-----
----4---2-2-4---5-8-8--11---3-----1
3--21-3-----66-1-633--24--745-5-8-8
3---4---2-----4-7-----2-----6--58--
----2-------2-5-----126--3--2------
2---0-4-7---1-------4---3-513-2-4--
6------6-47--3756--2--44----4-7--1-
--6-0-----4-6-----2-1-----3-+--4--9
--------1-5-----5-------2-9--------
----4---4---3---+-5---2-2---8-70--6
7-5--3-1-0+6--7---+17-317-964442++-
----4-4-7-----5-5-----3-3--05-8-6--
------4-----2-------62---1----+----
5-------8---1-6-8-1-3-2-2-8---2-3-4
807346-----2--62------6362+-52-787-
--------8-5-------2-4--24---2-----3
--+-------------7--------4---9----6
--7-6--0--6-6-+-7-8---+-----6-4-5-9
----2------1--82--5--0---4-3984-97-
--------8---6-8-+--05---6-------5--
------2---------8------------23--2-
---1--0-2--0--5---2-------3---1---2
--82+-506---4-4-+--04-8-96---1----4
------------4---7---3--4--2-2------
-0---1----2-4-------5-----3------2-
--3----2------73----------2---2----
------6-------7---4---2-7-4--------
--------2------------------2-------
-----1--01----3-+-----4-5----------
4---------41----7--3----7-----0----
----4-94----3------1--2-938--27----
--4-1-----0---6-----8-4---4----3---
-1--31---0--22------3-------5------
----2-53----7--1----------5-8-+---4
4-6----24-31--71--6--18--38-655---8
5---------4---9-9-----2-8-2---5-9--
-----2--23---1---2------7----------
--60-------0--5-6-------------5---9
3--5---27-3----0---------57-----3--
------32--1-3-------2-----6-5-4----

Generation = 66, Population = 218.
-----------------------------------
---------------4------------------5
----------------+------------------
-------------+--78--------------9-6
--------------5---7------------+---
--------------+3--9------7---3--+-5
----------------+-+----------3---45
----------------9------8------+5--+
----------------9---+----------9+-+
--75-------3----------+-+7---5--6--
------------------4---------------+
94--+5---9---+------4-8-6-3------5-
----------------9-----------+------
--+-8-----+5--7-------8-8-----97---
--------8---------+-------+---+----
-6+--7+-+-------8-----------+---++-
------6-+-9-8-9-----------8-+------
---83-----4---6---------------+--+-
------5-8-7-6-+---------5----------
--------+---------------8------+-+-
------------------3-----6-----+----
------75--6-----------+-9---6--6-9-
------+---9-----+-----+---+-+------
-----8--+8------------+-----+-7--+-
--------+---------------+----------
-------7----------------6-3-2---+--
-------------------------------5---
------------------------------8---+
-----------------------------0---4-
-------7------------------------5--
-------------------------------5---
-----7---1-------------------------
-----------------------6-------5---
-------5----------------+-----9--6-
---------------------2---68--5---5-
----------------------+---+-+--3+--
-----------------------+8---+--3---
---5------------+-------8-----7-759
----------------+---------8--------
-5---5--------+-+-+------6---8+-+--
--------6-----+---8-+---+---------+
--23----------+-+-5---+2-------08-9
+---------+-------+---+---9-----+-+
6---8-----------+---9---+8---4-----
--6-+-+-------7-+-+---+-----------+

Generation = 88, Population = 446.
5-6---0--------3+-----48-------4--4
3-------8-------+-------81---3--95-
------4---------+-+---+-----4---8-6
--+-+-4-+--2--39+---+-++99+781--+96
------5-+-----+-----+-----7---4+--3
7-----9-9--------6---9--+7---59-+4-
-------1+-7-+-+4+------4--+----7---
9+--++-5+-+8---9+++8-+--+-+---+-+--
+---9-+-9---5-+-+------++---+-++---
--------+---------------+--------+-
+-----+---8---+--------4--+-8-85---
--+6+--8--++--+++9+--9-+---5+-+++-+
------------+----------3----+--+---
+-----8--2---1--+4---4---7---4+-++-
----+---+------1----+--4+------4---
---------+++3+-59--9--+7+9-+++8-+--
+-+---+-+-----+-----+-+--------+---
-------------------------2---7-----
+-8---9-------+1--8---+79----------
------+++6--+5-+--45---++-+3+-+---+
+---+----------6+---9-8+------+9---
--------+3---3+--8---3+-++---+---+-
------+-----+-+--------7--+-+--++--
----+---+-------++-7+3-6----+--++--
+-----+-+-+---+-----+---+---+-5---+
--------+-------+6---5--++---+-----
------92+-+-+-+3+-------+---+-+-7--
---4-------1---4---3----+-----+----
------47--+-+--+-------++-----+57--
------4---------+4---3---5---57--8-
6-------+-----------7-----7----+--4
+---+-+-+-----+----3+-+4-8---++7-++
6-----8-----5-----7---++--7----6--+
+-------94---7--+7---7--+-------+--
+---+--99-------+-----+-+-----9---9
8------7++--+8--+-8---+-+-+-+-+----
--+-----------+9--8----++------7---
+------------------------6---9--+8-
+-------+-----+-+-+---------+--++-+
--+-+------6---7---8+--8-9+1+++-+--
----+---------+8--+----++----------
71---59-+7---6--+-------+-----9-+--
+-+----6+-+----3+-----+---+-----+--
---++--7+-+7---0-6+6-6+-+---+-----+
--------+-8-----------++--+---+8---

Generation = 110, Population = 825.
90-3-336+2----+-+2-2-7++-775-43984-
7-+46-56-3---8--+++6----+6-7+4---9-
9--296+5---6+--++-+3-7-+-7+7++6+---
-----887++----9--++9++++------+--+-
+----076+18-+---+1+-+5++-9+6-+++---
+7+---+-+----+-+-++-++-+---++9+7---
4-----92+6----+-+-+6+--++9+5++---9+
++++---9++++-+-----+--+-+++8++-7-+-
------+5+--39-------+4-+-+-4+-+++--
+-+----+--38+---++-89++--+-5-+--+-+
--7--4+-+5+-+2--+-+--8+--4--+6+---+
-+-8+++++--++++++--9+-+-+98+++---+-
---2+-74---2+-+5---4-4+8-6+3--+----
-4++--+8--+----+---585----+++-+--+-
-0--+3-3+6+--1--+-+4+4-6+4-6----+-+
+---+++++--+-++7+++-+--+---++-++++-
+-+0-0-5-1+3+-+--1+-+3-++4+--7-+---
+68-+4+----++-+4+6-+--71----+-+----
--+1+3-2-4-4+--3+-93+--+---7+8-+-7-
----++----+++-+----7-+-++-+8-9-+++-
-0+-+4-9+4+-+--++2+-+5+--7-8+6-++4-
+-+-----+-+7--+8++--+9+8+---+---+--
---3--++-----3+-+3-5+--+-0+5+9+++-+
+-+--+--+--6++-+---+++---+++-+++--+
+----5+-+--3---++--9-6+8-++6+8++--+
-4--++9+++--+--7+--5-++--+-6+---+--
+------7+3+-+5---4--+-+++8+4+5-++48
-9--+7--+---+7+9+-+---+--+---9+5++-
+---9-++-5+6+-++--------+8+6+3-+-8-
-3+--6-+-88--39--5--+4---+-3-+-+--+
+---+7-++2-247+-----9--++--7+5-+7-9
+----8---+--+7+4-------------++---+
+-+9+3-+-6-9-1++--+--7++-9+--+7-+--
-7---+---9-76--------8++-++6++-5---
+3+5++-++++7-+5+-++8-8-8++-+-6+---+
+7-------++8+++++--++++--++-+--9--+
+1+5+2-+-489+1++----+2-++1+-+---+--
+-98+---+5---+-++++5-++---+5+++-+--
--+1-+-++7-4-5+-----+-+++---+9-++--
-+--+--+-+-++-+9++++++-+---5++---+-
+-+-+4-7+4-3---+------+-+-+5+9++-6-
+5+-----+-+-8-+++--+------++---8+++
----+--8+6---5+6-5+-+----5-7-9+++7+
+-++-+-++--++-+4+--++9-9+--+---7---
+-+--------2-2+9+3-5--+++1-3-9-++-+

Generation = 132, Population = 213.
---------------------------6-------
---------------------------------+-
----------------+-----------+--+---
---6-------3-----+-+++-----++------
--------+-+---+-------------+--+---
-----------------------------+---+-
--------+---+-+-----+---+-------+--
-------+---+-+---+-+-+-+++--------+
----+-+---+-+-+---+-----+---+---+--
----------------+------------------
----9-----+-+---+-+---------+------
------++----+----++--+-++-----+----
--------+-+---+---------+---+---+--
------------+-------+--------8---+-
--------+-----+--------------------
--------+-++--+-+--++-----------+--
----------------------------+--+---
+---------------+---------------++-
+-------------------------------+--
+--+--------+-----+-+---+-+-+---+-+
---------------------------8-------
--+-+-----------------------+-----+
--+-+---------------------+-+-----+
--+----+------+-+-------+-------++-
-------------------------------+---
+-------------------------------+--
+---------------------+-------+-+--
---6---+----------+-+--------+---++
----------------+------------------
----------------+------------------
---------------+-------+--+--------
---+-------8----+-----+-------+-++-
------------+-------+--------------
------------8-------+--------------
-----------8---------------+-------
--+-----+---+-----+-+-+---+---+---+
----------------+------------------
----------------++---+-------------
+-----------+--+-------+--+-----+--
+---+-+----++---+-+---+----------++
+-----+-----------------+-+---+----
-------------+---+---+---+---------
+-+-+-+-+-------+-----+-+-+-+-----+
--++----+-------------+------++----
+---+-----+-+-------+-+-----+-+-+-+

Generation = 154, Population = 722.
+----6-+-4---7++-6+-9++++9+--6--+8+
---6+-+++-----+-+-+-+-++----+--9-+-
+-+---++------+++-+---+---+-+++--9+
-+--+-+-+-+---+-++--+++-+++--+-+-++
+---------+---+++-+--+++++--++---9+
-+---+++--96+--+----+-++-++--+++++-
--+-+-+-+----+-++5+-++---++-++---++
++----++-++-+---+++--+-+------++---
--+-+-+---+-+1--+1+-+7+-+++-+7-+++-
-+++-++-+---+-----+---+++---+---+-+
----+-----+--5+--0--+++--6+---+-+-+
-----+--+++-+---+++--+-++-----+++--
+-+---+------3++-1--97+--9+-++-++8-
+9-+-+-+----+--+---++---++---++-+-+
+---------+----6+----5---5--+++--9+
+++----+-+---++-+---++---++-++--+--
+---+--+--+---++--+--8+-+9+--++--+-
+8---8+-------+-++---++-+--6-------
-----7+7-5+--9-8-8---7+-++---+--+++
-+-----------+-++++-+-++-+---+--++-
--+-+7+++6--+8++-3--+9-++++--+---++
+--+--+++++-+++--+---++--++--+-+-+-
+-----++--+-+--++------++-+--++-+8-
--+---+++---+++++-+-+-+++----+---+-
----+--++-+----+--+-+-+++-+-++++++-
+-----+++--++--7----+-+--++--+-8-++
--+-+7--+9+-++-++7+-+8++++--+---+-+
+-+---++++---+-+----++-------++-++-
-------++-+-+4+++9+--8-+-+--+9+-++7
+-+---+--++--6--+++-+8++++-4-+-+--+
+-------+-----------+-+---+-+--++-+
-++--+---++--++++----+---+---+-++--
+-----+-+-+-+2-++6--+9---++---+-+--
+--++--++-+----++++9-+-+-++--++----
+-+-----+----+8+++----+-+---+--+---
----+++-+-+-+-+-+-+-+++-+++-+++-+++
+---+-----+---++--+-+7--+3+-+++-++-
---+---9+-+---+++++8-+++--+---+-+-+
-------++-+----+--+-+-+---+---+-+--
+-+---+--++-++-++---++++++---++----
--+--++++5+--9++-9+-+7-++7+-++---8+
--+-+--+-++++++++++-+++++--+---++--
--+--7-++8--++-++8+--6++-++-+-+-+--
--+-+-++----+7-+-+--+++-+-+--++----
+-+----+----+-+++-+-+--++-+-+++++8-

Generation = 176, Population = 484.
+-----++----+----------++-----+----
++---7--------+-++---++---------++-
+-+---++--+-------------+-+-+-+----
+-+++--++------+++-+-++----++---++-
+------++-+-+-+-+-----+-+-+-+-+++--
------+--+---+----------------+----
+-+-+---+---+-+-+-+-+-+-+-+---+-+--
---++---++++-++-+-++---+-+-+-++-+--
+-+---+-+-+---+++-+----++---+-+---+
--------------+-+-----+----------+-
+-+-+-+-+-+-+--6+-----+++-+---+----
-+-+-+-+--+---++-+-+++--+------++++
----+-----+-+--++-+---+++-+-+-+----
+-----+--+---+--++---+--------+-+--
-------6--+-----------+-+---+-++---
+-+-----+-++--+-++-+-+++----+-++-++
--+----+--+-----+---------+----+---
++---+--------+-++---++---------+--
-------+----+--+----------+--------
+--+---+-------++---+-++--++---+-+-
------++---------------++-+---+-+--
++---+--+---------------+-------++-
+-+-+-+-+-+-+-+-+-----+-----+-++---
-+-+-+++++-+-+--+-+-+-++--++---++-+
--+----++---+-+-+---+-+-+-+---+----
---------+---8---+---+-------------
+-+-+-+-+-+---+-+-+-+-+-+---+--++--
-+-+++++++--++---+-++++-+-----++-++
--+-+---+-+-+-+-----------+-+------
-+---+--------+-------+------------
----+---+---+-++-------+--+-+------
++-+-+-+--++--++-+-+-+-++-++---++++
+---+---+-+---++--+----+----+---+--
+-----+--+---+--+-------------+-++-
--------+-+---+--------+-------+---
--+-+-+++--------+---++-+-------+-+
-------++-------+-----+-----+--+---
------+-------+--+---++-------+--+-
+-----+-+-+-+-++-------+--+-+-+-+--
++-+-+--+-+-+-++-+--+++---++---++--
+---+-++----+--++-------+---+-+----
--------------+-+-----+--+---+---+-
+---+-+-+---+-+-+---+-+---+---++--+
-++-++---+-+-+--+++-++--+---+-++-+-
+-+---+---+-+---+---+-+---+-+--+---

*** Life<FredkinCell> 11x25 ***

Generation = 0, Population = 19.
---------------------0---
---000---0-------------0-
-------------------------
----0----------------0---
0-0------------0------0--
-------------0-----------
---------------0---------
-------------------------
-----0------------0------
-------------------------
----0------00------------

*** Life<FredkinCell> 4x1 ***

Generation = 0, Population = 4.
0
0
0
0

Generation = 42, Population = 4.
+
+
+
+

Generation = 84, Population = 4.
+
+
+
+
